ply
format ascii 1.0
element vertex 368
property double x
property double y
property double z
element face 473
property list uchar int vertex_index
end_header
1.40927 3.11112 3.33094
-0.0318661 3.9969 3.6516
-1.1175 3.11112 1.5055
-0.852177 3.99964 2.65633
-1.00489 3.11112 0.736001
3.48639 3.52223 -0.741471
3.44583 3.98647 -0.118874
1.37541 2.61078 2.72384
1.43988 3.11101 3.29001
2.22111 3.50315 3.11112
0.0339427 3.1079 3.08078
0.268914 3.09219 3.24184
-0.189653 3.49144 3.11077
3.11112 2.79122 1.78254
2.67767 3.10732 2.32937
2.64152 3.16403 2.40184
3.10727 3.26025 2.18831
-0.962802 2.38029 1.45082
-0.587781 3.07261 2.34887
2.22312 4 3.70071
-0.520274 3.01056 0.377705
-1.09267 2.24718 0.74503
-0.509333 3.38736 0.443469
-3.11111 2.42941 -0.444444
-3.11111 2.52197 0.444445
-3.78054 3.34145 0.927305
-3.71892 3.15616 -0.00971158
2.42046 2.43501 -0.728356
2.48059 3.05128 -0.252001
2.80134 3.61003 -0.05945
2.99646 3.31727 -0.449413
3.31606 2.86241 -1.70015
3.26202 3.11054 -1.05076
3.94945 3.48382 -1.76814
-4 3.10474 -1.51611
-3.11111 2.31911 -1.08379
-3.98988 3.22894 -1.16013
-4 3.11112 -1.48119
-0.444444 2.47084 -3.13813
-0.222222 2.22223 -2.44444
0.443367 3.1418 -3.08211
-0.444444 3.11112 -3.75934
-1.34795 3.08973 -3.47085
-1.73048 2.22226 -2.33976
-2.22222 3.18056 -3.06235
-1.78759 3.11112 -3.24886
3.11451 2.49572 -3.48078
3.78453 3.11112 -4
3.11721 1.7082 1.79321
3.47322 1.33411 2.24331
4 2.24409 2.22223
3.11112 2.40889 1.64664
-2.24221 1.62868 2.18409
-2.29086 1.86667 2.32761
-2.93185 2.52498 2.59358
-2.42603 2.22223 2.00956
-2.22222 1.81075 0.731336
-2.71111 2.22223 0.444445
-0.63763 1.46783 0.084002
-1.19154 1.50373 0.736492
1.63218 1.53127 -0.693696
1.65361 2.21543 -0.299273
1.99972 2.71667 -0.222222
2.21862 2.49071 -0.501905
-3.25428 1.98092 -1.5883
-3.14817 2.20497 -1.22007
2.2275 1.68226 -2.66815
2.22223 1.75422 -1.57575
2.71056 2.24081 -1.67172
2.84194 2.22223 -3.11111
1.29759 2.10545 -2.23097
0.582086 1.33334 -1.42201
0.475215 2.24596 -2.20142
0.601767 2.33791 -2.22222
0.21376 2.20446 -2.22222
0.444445 2.18438 -2.09675
0.440462 2.24348 -2.20451
2.54667 1.89379 -3.11111
3.11112 2.52936 -3.41029
3.33188 2.20351 -3.73162
-0.585435 0.576667 1.11266
-0.444444 0.534512 1.33334
-0.768164 2.20656 1.60308
-2.22222 1.32514 1.33334
-2.47286 0.840878 2.04177
-2.22222 1.33334 -1.33333
-2.13888 1.33334 -0.756511
-2.22222 1.4992 -0.7124
-1.765 1.57588 -1.56452
1.58108 1.12985 -2.2484
1.64051 1.10687 -2.21602
1.91112 1.33334 -2.22222
2.22223 1.74446 -2.53987
3.11112 0.251115 3.11112
3.12025 0.243322 3.11658
3.95892 0.697702 3.99875
3.11112 0.444445 2.93334
2.22223 0.0553357 2.10821
3.0925 0.399173 3.11112
2.48081 0.444445 2.22223
3.11112 1.33334 1.87881
1.33334 0.140708 1.00386
1.62106 0.0104521 1.33334
2.22223 1.33334 1.33334
1.91997 1.28551 1.22193
-0.82927 -0.104335 -0.776587
-0.444444 -0.0258394 -0.118563
-1.33333 1.07394 0.136758
-1.33333 0.562497 -0.888888
-1.76944 0.145103 -1.36528
-1.40335 0.376482 -0.841077
-3.99172 0.354146 -3.28879
-3.79985 0.444445 -3.06269
-3.38221 0.8329 -2.44825
-3.92381 0.561133 -3.11111
2.28 -0.72381 1.93245
2.69332 -0.803218 2.36794
-3.77777 3.11112 1.33334
-3.41494 3.11146 1.88048
-2.32868 -0.60643 2.1984
-2.29304 -0.444444 2.22223
-2.60819 -0.440775 2.56541
-2.26566 -0.399394 2.22158
1.60267 -0.719117 0.862409
2.21981 -0.444444 1.92673
0.492315 -0.444444 0.112341
1.16756 -0.613119 0.531682
0.6987 0.215642 0.603427
0.444445 -0.444444 -0.174765
-3.17229 -1.60324 3.03742
-3.11285 -1.33333 3.17291
-3.37373 -0.555555 3.11112
-3.39207 -0.500461 2.90816
2.72223 -1.33333 1.84287
3.10595 -1.48001 2.46964
-1.11111 -2.02327 2.22223
-0.95608 -2.20968 2.90192
-1.33075 -1.27667 2.38165
-1.33283 -0.555771 1.7154
2.51483 -1.71387 0.709188
2.32953 -1.17406 1.31849
-1.74288 -1.33333 -0.132729
-1.68531 -1.75086 1.33334
-1.33384 -1.32063 0.470847
-1.368 -1.31768 0.416889
3.11113 -1.05069 2.67793
3.56148 -0.478449 3.28767
-2.13916 -1.34752 -0.623474
-1.92777 -0.839397 -1.33333
-2.90837 -1.44542 -1.33708
-2.35978 -1.33352 -0.893202
-2.52801 -1.19158 -1.32495
-2.22222 -0.877834 -2.22222
-4 -1.60995 -2.55928
-3.92882 -1.62078 -2.21255
-3.14773 -1.32867 -2.12891
-3.11111 -1.33333 -3.11111
-3.41102 -1.60044 -3.64718
-3.11375 -1.14453 -3.28308
-2.22222 -2.66666 3.44466
-2.46666 -1.33333 3.11112
0.444445 -2.34554 1.08445
0.164199 -2.48699 1.44936
-0.435439 -2.07744 1.46673
0.384551 -2.14254 0.880598
-3.39561 -2.22222 -0.764665
-3.64981 -2.77937 -0.0563596
-3.15022 -2.22222 -0.38484
-3.11192 -2.15606 -0.444444
-3.11111 -3.42933 4
-3.60235 -2.54216 3.71567
-3.77901 -3.32837 2.22223
-3.58321 -3.39751 3.1107
-3.11135 -2.97765 2.60869
-3.37238 -3.04421 2.22223
-0.191696 -3.11111 -1.46986
-0.42069 -3.11693 -1.31605
-0.281785 -2.74547 -1.32393
-0.317151 -2.64541 -1.33333
-1.84243 1.33334 -0.149414
-1.81146 1.44241 0.246763
-0.444444 -3.11111 -1.33333
-0.647777 -3.52044 -1.26317
-0.867149 -2.22222 -0.921048
-0.648716 -2.22222 -1.35491
1.33334 -3.95187 2.25523
1.33336 -3.33558 1.61345
-0.360513 -3.82269 -2.23327
3.11987 -1.53873 2.47786
3.9208 -1.5336 3.25575
-0.444444 -1.33333 0.254716
-0.860206 -1.33333 0.904549
-1.19883 -1.25726 0.444594
-0.783622 -1.07897 0.172733
3.92963 -3.14996 0.402673
4 -3.2355 0.444445
3.77625 3.11151 -2.58366
3.11112 -1.72813 1.70246
2.71243 -2.28985 0.323812
3.11112 -2.55875 0.444445
4 -3.11111 0.444445
3.88811 -3.1109 0.404123
3.11178 2.50947 -2.36604
2.27334 3.11112 -3.20371
0.444445 -0.209375 -0.592781
0.525253 0.714245 -0.281315
0.987055 0.444445 -1.00138
2.09079 -3.18675 1.15806
2.22225 -3.91422 1.76677
2.78129 -3.47161 1.14184
1.93356 -1.77777 0.247921
2.22223 -1.91724 0.444445
2.47493 -1.94768 0.444337
-3.09324 2.22223 -1.33333
-2.66547 1.8892 -0.87469
-3.01889 2.22275 -1.05014
-2.60454 2.22223 -1.70078
2.18322 -2.22983 0.421942
1.33334 -2.3964 0.729314
2.17687 2.96915 -3.11932
1.39488 2.22223 -2.27777
1.51149 -1.12072 0.43859
1.7761 1.47692 -3.19178
0.444445 1.70172 2.22223
0.444445 1.87556 2.48769
1.39901 2.22209 2.26459
2.22223 1.90562 1.45715
-2.29938 1.74643 -0.233413
-2.86851 2.22223 -0.444444
0.870564 -3.11111 1.62527
0.816236 -3.62986 2.22233
1.33334 0.909718 1.04146
0.78268 1.33334 1.56688
1.36638 3.24857 -3.08047
1.51241 3.29969 -3.11111
0.741182 -2.22336 0.767711
0.738753 -2.76437 1.33408
1.33334 -3.07649 1.36345
1.33334 -1.73333 0.195664
0.444445 -1.79465 0.480602
1.26531 1.44834 -0.452899
1.33334 1.8415 -0.318058
-1.24444 -3.62666 4
0.888889 0.681773 -2.22222
0.938889 0.533334 -1.33333
3.42976 -4 1.33537
0.839537 3.32573 -3.1124
0.809868 3.11125 -2.90156
1.07623 3.22277 4
0.755173 2.40257 3.11439
0.625228 2.22223 2.86065
0.163818 1.33334 1.99148
0.105027 2.12232 2.42958
-0.444444 -2.22222 -1.16203
-1.21542 -0.862308 -1.33333
-0.977777 -3.11111 3.63334
0.444445 -3.14135 1.9644
0.102671 -3.16893 2.2559
-0.324544 0.644241 1.18983
-0.135386 0.856464 1.48224
-0.378792 -2.22222 -1.14353
0.262286 -1.5818 0.203047
0.444445 -1.33333 -0.00328082
-0.0615628 -1.33333 -1.24139
0.409066 -0.333333 -0.162006
0.218492 0.0555556 0.444445
-1.44531 2.12168 -2.39238
-2.2132 2.31103 -2.10251
3.99949 -2.41243 1.82847
3.28653 -2.04112 1.33134
0.415959 -0.316155 -0.516921
0.0861932 1.33334 -1.33333
0.0221748 0.444445 -0.674642
3.2275 1.15014 2.21706
-0.445424 3.99651 3.15024
-1.0097 -2.32992 2.22191
-1.26759 -2.74698 3.11112
-0.385548 -2.88233 2.33617
-0.389629 3.95078 0.469835
-0.0666916 3.11112 0.103551
-0.444444 0.444445 0.963596
-1.33333 0.253557 1.49633
-0.858079 0.888889 -1.34351
0.879302 0.420371 -1.37813
-0.527728 2.21348 -2.97309
-0.762284 1.33776 -1.97727
-2.22237 -2.04127 1.22653
-2.223 -2.14163 1.56495
-1.33333 -1.97769 2.22223
-0.585105 -3.32619 2.98993
-0.614189 3.20612 -3.99982
1.99531 3.11112 -0.117435
-1.50507 -4 -2.03244
-1.42168 -3.92738 -2.24825
2.16709 2.33472 1.90984
1.3716 1.06998 -0.788848
2.25468 1.55081 1.34852
-1.33333 -1.33333 2.22223
-2.15151 -0.444444 2.22223
-1.33333 -0.444444 1.59441
-2.6495 -3.22134 3.77933
-3.05389 -3.11559 3.08398
-2.18929 -0.379369 2.23946
-1.33333 -0.120711 1.48889
-2.29185 -2.22498 1.74244
-1.73292 -2.22222 2.22223
2.37999 2.18933 -0.994504
-0.231114 1.33383 -0.135655
-0.126996 2.22223 -0.0321156
0.849145 2.22223 -0.203456
-1.33333 -3.10208 3.69856
0.841974 3.99163 0.0313677
-0.444444 0.784848 -0.110407
-2.66666 -1.27128 3.42984
-3.13266 3.08066 -2.32196
-3.15587 3.1118 -2.35205
-2.22222 -1.14081 -2.49947
-2.81783 0.444445 -2.15293
-2.95319 0.405879 -2.29875
-0.325936 2.41981 2.2199
-1.77777 1.47482 0.718006
-1.63575 1.32717 0.838315
-1.33333 0.888889 1.4215
-1.83792 1.77897 2.21064
-3.95124 -3.15238 0.441557
-3.80535 -3.11153 0.768488
-3.11136 -2.56889 0.776078
-0.122664 -3.78186 3.11281
-0.590576 -1.9111 -1.3825
-2.0573 -0.888888 -2.22222
-3.6506 1.63874 -2.22368
-3.94762 3.47854 2.86251
-0.602029 2.37033 -3.10952
4 3.67462 2.01689
3.77716 3.9992 2.33489
-3.21567 3.97884 -3.30054
-2.93613 3.99923 -3.50689
-3.1916 1.26921 -1.99603
-2.40771 0.822769 -1.50739
-0.444444 -2.22222 -1.33735
-3.19025 1.78195 2.48113
-4 3.11112 2.91112
-2.62807 -1.99587 -0.00398389
-2.84655 -2.23695 0.260727
-2.33333 1.30049 -1.04341
-1.98721 -1.50559 3.11115
-1.26907 -2.1032 3.13748
-2.93154 -1.19401 -3.14048
-2.93054 -1.45632 -3.11121
-1.63382 -3.15345 3.57026
-2.78124 -1.33333 -2.9718
3.98261 -2.27064 2.93729
-3.90487 -2.22426 -1.34044
-1.27905 -1.0747 -1.77777
-1.33321 -0.329599 -1.33428
-1.81193 -2.71319 3.11112
-3.1294 2.19573 1.23069
-2.22222 -2.68467 3.11112
-2.1966 -1.32225 3.11134
-2.7396 3.11188 -2.67362
-2.22354 2.44151 -2.26185
-2.55785 -2.22222 1.07627
-0.878237 -3.11148 -2.38059
-3.217 1.84307 2.21471
-2.74923 -1.6095 2.77576
-0.444444 3.02536 -3.8836
-3.00259 0.608189 -2.22222
-2.00897 -1.33311 -2.44748
1 0
1 1
2 2 3
2 4 2
2 5 6
4 7 8 0 9
4 10 11 1 12
4 13 14 15 16
4 17 18 3 2
2 15 19
4 20 21 4 22
4 23 24 25 26
4 27 28 29 30
4 31 32 5 33
4 34 35 36 37
4 38 39 40 41
4 42 43 44 45
2 46 47
2 38 41
4 48 49 50 51
4 52 53 54 55
4 56 52 55 57
4 58 59 21 20
4 60 61 62 63
4 64 65 35 34
4 66 67 68 69
4 70 71 72 73
4 74 75 76 39
4 77 66 69 78
2 79 46
4 80 81 82 59
4 83 84 52 56
4 85 86 87 88
4 89 90 91 92
4 93 94 95 96
4 97 98 99 100
4 101 102 103 104
4 105 106 107 108
4 109 110 86 85
4 111 112 113 114
4 115 116 98 97
4 24 117 118 25
4 119 120 121 122
4 123 124 102 101
4 125 126 127 128
4 129 130 131 132
4 133 134 116 115
4 135 136 137 138
4 139 133 115 140
4 141 142 143 144
4 145 146 94 93
4 147 141 144 148
4 149 150 151 152
4 153 154 155 156
2 157 158
2 159 160
4 161 162 163 164
4 165 166 167 168
2 169 170
4 171 172 173 174
4 175 176 177 178
4 86 179 180 87
4 181 182 183 184
2 185 186
2 175 187
1 95
2 188 189
4 190 191 192 193
2 51 50
2 194 195
2 33 5
2 196 33
2 47 196
4 133 134 188 197
4 198 199 200 201
4 30 29 6 5
4 68 27 32 31
4 78 69 202 46
2 203 47
4 204 128 205 206
2 77 79
4 123 124 115 140
4 207 186 208 209
4 210 211 139 212
4 213 214 215 216
4 217 218 199 198
4 63 62 28 27
4 219 220 69 78
4 210 211 123 221
4 222 92 66 77
4 223 224 225 226
4 214 227 228 215
2 96 95
4 229 230 185 186
4 231 232 103 104
4 219 220 233 234
4 69 68 31 202
4 235 236 237 218
4 238 239 211 210
4 198 199 139 212
4 240 241 61 60
1 242
4 243 244 90 89
2 245 195
4 125 126 123 221
4 246 247 233 234
2 1 248
4 10 11 249 250
4 251 252 224 223
4 253 190 193 254
2 242 255
4 256 257 230 229
4 258 259 232 231
4 161 162 236 235
4 260 261 262 263
4 264 265 127 128
4 266 88 267 43
4 261 164 239 238
4 200 268 197 269
4 270 264 128 204
4 271 272 206 244
4 100 99 96 273
4 41 40 247 246
4 3 274 1 12
4 275 276 277 162
4 22 4 278 279
4 190 191 164 261
4 280 281 81 80
4 105 106 264 270
4 106 280 80 107
4 253 190 261 260
4 282 108 272 271
4 181 182 176 175
4 283 204 206 244
4 284 285 75 74
4 207 218 199 209
4 286 287 288 142
4 289 276 277 257
2 45 290
4 73 247 233 220
2 78 46
2 291 29
4 188 189 146 145
4 224 250 7 225
2 292 293
4 70 73 220 92
4 294 7 14 13
4 206 240 60 295
4 226 294 13 296
4 288 297 298 299
4 172 169 300 301
4 244 71 91 90
4 229 236 237 186
4 299 298 302 303
4 304 287 288 305
4 252 10 250 224
4 67 306 27 68
4 207 186 237 218
4 142 288 135 191
4 307 308 309 241
2 166 165
4 39 40 247 73
2 159 310
4 308 279 311 309
4 264 312 205 128
4 132 131 313 120
4 270 272 206 204
4 217 210 212 198
4 241 309 62 61
2 181 175
4 314 34 37 315
4 127 231 104 101
2 130 131
4 217 218 211 210
4 194 195 200 201
2 274 1
4 316 152 317 318
4 249 248 0 8
2 186 208
4 82 17 319 251
4 266 88 285 284
4 206 205 241 240
4 299 298 137 138
4 282 285 75 271
4 180 320 59 58
4 321 322 323 320
4 303 322 81 281
4 59 82 17 21
4 324 325 326 166
4 190 193 262 261
4 92 91 67 66
4 235 239 211 218
2 36 37
4 139 133 197 269
4 9 0 19 15
4 275 135 163 162
4 289 242 327 257
4 80 81 259 258
4 181 184 178 175
4 244 206 295 90
4 213 214 87 88
4 179 321 320 180
4 256 162 236 229
4 184 183 253 328
4 152 151 148 329
4 144 143 192 193
2 242 327
2 64 330
2 331 118
4 259 251 223 232
4 266 43 332 284
4 100 296 48 273
4 321 320 59 80
4 263 262 264 270
2 189 146
2 333 334
2 335 336
4 280 80 258 265
4 337 64 213 338
4 126 127 101 123
4 184 328 339 178
4 325 171 174 326
2 310 255
2 336 45
4 199 139 269 200
4 340 341 54 53
4 226 225 7 294
4 16 15 334 333
4 166 167 342 343
4 238 125 221 210
4 81 82 251 259
1 203
4 338 344 214 213
4 156 112 318 316
4 310 345 346 255
1 45
2 246 234
2 25 26
1 131
4 20 22 279 308
4 58 20 308 307
4 35 23 26 36
4 157 158 347 348
2 130 160
4 276 255 346 136
4 300 159 310 349
4 153 156 316 350
2 37 34
4 77 78 46 79
2 268 351
4 91 60 306 67
4 110 86 108 105
4 169 170 159 300
4 261 262 125 238
2 154 352
2 131 130
4 353 254 105 354
4 284 332 39 74
4 355 297 136 276
4 158 156 112 111
2 349 242
4 348 350 316 347
4 356 24 57 56
2 341 117
4 172 173 357 301
4 160 313 358 345
2 248 0
2 34 64
4 27 30 5 32
4 314 315 359 360
4 326 174 304 361
2 111 158
4 317 338 85 109
4 289 242 255 276
4 262 264 128 125
4 13 16 333 51
4 107 58 307 312
1 169
4 159 160 345 310
2 230 185
2 96 49
4 271 75 71 244
2 51 333
4 21 17 2 4
4 17 18 10 319
4 168 167 342 150
4 39 76 72 73
4 288 299 138 135
4 18 3 12 10
4 130 131 313 160
4 83 56 320 321
4 119 122 303 299
4 11 1 248 249
4 120 121 302 298
2 293 362
2 3 274
4 251 252 10 319
2 327 257
2 300 349
4 344 214 87 86
4 270 264 312 272
2 279 311
1 334
4 182 183 177 176
4 56 52 323 320
4 363 340 53 52
4 209 208 245 195
4 357 364 297 355
4 250 249 8 7
4 84 52 323 322
4 174 173 357 304
2 279 278
4 213 216 267 88
4 148 144 193 254
4 90 295 60 91
4 142 143 192 191
4 360 359 44 43
4 75 76 72 71
4 349 310 255 242
4 360 216 267 43
2 362 187
4 170 130 160 159
2 292 181
4 305 288 135 275
4 301 300 159 357
4 254 105 270 263
4 309 311 291 62
4 106 280 265 264
2 166 324
4 312 307 241 205
1 170
4 304 357 355 305
4 42 45 290 365
2 169 300
2 114 111
4 154 155 152 149
4 297 298 137 136
2 24 23
4 329 109 354 353
4 297 345 358 298
4 352 165 168 154
2 117 24
2 257 230
4 364 120 298 297
4 85 88 285 282
4 154 168 150 149
4 102 103 100 97
4 103 226 296 100
4 152 317 109 329
4 92 220 69 66
2 23 35
4 183 253 260 177
4 60 63 27 306
4 129 132 120 364
2 234 203
2 41 246
4 219 234 203 78
4 273 96 49 48
4 112 113 366 318
4 42 43 332 365
4 46 202 196 47
4 343 361 286 342
4 62 291 29 28
4 7 9 15 14
2 130 170
4 64 65 214 213
2 0 19
2 208 245
4 23 24 57 228
4 179 321 80 107
4 191 135 163 164
4 314 34 216 360
4 134 116 145 188
4 116 98 93 145
4 265 258 231 127
4 98 99 96 93
4 227 56 57 228
4 253 254 263 260
4 296 13 51 48
4 78 203 47 46
4 158 156 316 347
4 211 123 140 139
4 113 337 338 366
4 70 71 91 92
2 15 334
1 195
4 328 253 260 339
2 351 188
2 200 268
2 94 95
2 49 50
1 5
4 363 340 341 117
2 165 352
1 157
1 158
2 153 157
2 113 114
2 335 315
4 117 341 331 118
4 336 359 44 45
4 357 159 160 364
2 37 315
4 232 223 226 103
2 35 34
2 26 36
2 325 324
1 41
2 171 325
2 4 278
2 29 6
2 172 171
4 214 227 180 87
2 118 25
4 157 153 350 348
4 113 337 64 330
4 335 315 359 336
4 202 31 33 196
4 256 257 277 162
4 316 152 329 367
4 156 155 152 316
2 195 200
4 34 35 215 216
4 179 180 58 107
4 35 23 228 215
1 47
4 209 199 200 195
4 166 326 361 343
4 356 363 52 56
4 108 107 312 272
4 117 341 54 55
4 150 342 141 147
4 268 351 188 197
2 330 113
4 24 117 55 57
4 318 317 338 366
4 150 151 148 147
4 129 130 160 364
4 338 344 86 85
2 311 291
4 342 286 142 141
2 146 94
4 227 56 320 180
4 83 84 322 321
4 119 120 298 299
2 331 341
4 122 121 302 303
4 357 159 310 355
4 86 179 107 108
4 161 164 239 235
4 65 35 215 214
4 120 313 358 298
4 293 292 181 362
4 329 148 254 353
4 109 110 105 354
4 85 86 108 282
4 361 304 287 286
4 124 102 97 115
4 321 322 81 80
4 365 290 41 38
2 154 153
4 305 355 276 275
1 315
4 288 297 136 135
2 77 78
4 355 310 255 276
4 356 363 117 24
4 297 345 346 136
2 290 41
2 169 172
4 365 332 39 38
4 178 177 260 339
4 362 181 175 187
