ply
format ascii 1.0
element vertex 1765
property double x
property double y
property double z
element face 1989
property list uchar int vertex_index
end_header
-0.0459888 3.73239 3.41116
0.117474 3.87699 3.669
-0.454785 3.74924 2.97909
-0.290275 3.87274 3.24847
3.3506 3.80488 2.5052
3.21351 3.95459 2.78646
-0.780098 3.77449 2.55479
-0.67297 3.91471 2.79608
-1.00299 3.77026 2.11489
-1.12314 3.79144 1.65361
-1.07659 3.904 1.97247
3.7966 3.78467 -0.831503
3.68927 3.89466 -0.506848
-2.7606 3.98638 -3.59343
-2.89336 3.8207 -3.33547
2.52259 3.79115 -3.78967
0.378269 3.79054 -3.79166
-2.09722 3.79387 -3.78491
-0.682553 3.36892 0.582434
-0.928223 3.36669 0.836809
-0.872921 3.78998 0.837027
-0.651121 3.66933 0.613673
2.96528 3.35161 -0.365678
2.81795 3.51396 -0.170974
2.92516 3.78578 -0.0433825
3.09841 3.62519 -0.249183
-1.02536 3.7899 1.1367
3.37376 3.36537 -0.834167
3.25938 3.48013 -0.526575
3.41313 3.75307 -0.37102
3.53441 3.62129 -0.696012
3.70064 3.45596 -1.26039
3.62481 3.53298 -0.976961
3.91062 3.6678 -1.26068
3.78876 3.36878 -1.68724
3.97147 3.60768 -1.55001
-3.68517 3.50668 -2.40652
-3.79515 3.36363 -2.11314
-3.96449 3.60259 -2.28236
-3.81338 3.69302 -2.54141
-3.23124 3.53281 -2.78953
-3.35357 3.3775 -2.51693
-3.512 3.62065 -2.68592
-3.38731 3.77757 -2.9624
0.111076 3.46258 -3.67775
0.128542 3.67525 -3.89196
-1.27744 3.36043 -3.7972
-1.42499 3.60509 -3.97237
0.983556 2.80308 3.53649
0.97843 3.0212 3.6947
0.923792 3.26412 3.85636
0.636105 3.16219 3.57574
1.65859 2.96352 2.92519
1.53587 3.11458 3.21548
1.69234 3.36045 3.37567
1.81733 3.21192 3.0951
2.13083 2.93094 2.54196
1.99791 3.08926 2.81511
2.14912 3.33842 2.97999
2.27876 3.18335 2.70908
-0.722714 2.97836 2.1033
-0.637209 3.14632 2.3235
-0.690281 3.36632 2.40135
-0.876293 3.35953 2.1182
-0.96308 2.95267 1.66921
-1.03273 3.34343 1.70818
-3.32699 3.00897 1.684
-3.32187 3.01034 2.10773
-3.53676 3.19806 2.10663
-3.53838 3.19473 1.68403
-1.05263 2.94456 1.26129
-1.05263 3.34224 1.26273
-3.34647 2.99021 1.26287
-3.55774 3.17706 1.26296
-0.975658 2.94441 0.842329
-3.40548 2.99606 0.860784
-3.57377 3.16249 1.01404
-3.76442 2.95916 9.18236e-05
-3.7386 2.98139 0.420872
-3.82591 3.30907 0.420788
-3.86017 3.27798 -0.000139174
-3.78599 2.94061 -0.420873
-3.89465 3.24798 -0.421111
-3.73091 2.88231 -1.05263
-3.92779 3.22261 -0.842888
-3.76164 2.90766 -1.34388
-3.96099 3.19482 -1.15464
-3.61958 3.12907 -1.93768
-3.86979 3.01284 -1.47368
-3.90553 3.22022 -1.76834
2.96419 2.93796 1.99139
2.74917 3.14899 2.32451
2.89048 3.4121 2.47884
3.02538 3.25968 2.2307
-3.1913 3.13594 -2.34309
-3.351 3.04573 -2.09362
-3.47432 3.22478 -2.22063
3.71951 3.0276 -2.94699
3.69102 3.04968 -2.52553
3.90116 3.25374 -2.52551
3.92948 3.22329 -2.94694
3.73089 3.0239 -3.36845
3.94064 3.20972 -3.36833
2.20499 3.0834 -3.19462
2.08614 2.95201 -3.05593
1.92018 3.17039 -3.14887
2.08211 3.34121 -3.31519
1.62892 2.56025 2.48592
1.50314 2.71801 2.75937
1.78331 2.80937 2.65695
-0.0322189 2.49082 2.55252
0.135016 2.64423 2.804
0.0137199 2.97255 2.93154
-0.145609 2.82931 2.67432
-3.83492 2.49864 2.66076
-3.74552 2.66358 2.77997
-3.82509 2.85266 2.87182
-3.80318 2.89733 2.73685
2.12593 2.51559 2.10988
1.98449 2.67959 2.37709
2.26514 2.77053 2.28201
-2.86453 2.58212 2.20871
-2.95923 2.4543 2.5407
-3.13302 2.76116 2.35866
-3.08976 2.80224 2.10893
2.99287 2.52268 1.76843
2.80513 2.70344 1.91615
3.0864 2.76907 1.87744
-2.87839 2.61144 1.68397
-3.08994 2.79873 1.684
-1.01428 2.52789 1.25548
-0.789493 2.50643 1.72172
-2.90072 2.58862 1.26289
-3.11162 2.77883 1.26295
-3.69448 2.64543 1.26541
-3.7687 2.55221 1.73584
-3.95983 2.77101 1.58495
-3.90622 2.81336 1.26471
-3.02332 2.44979 0.440354
-3.02274 2.45722 0.787225
-3.14064 2.75264 0.842012
-3.15687 2.73778 0.624739
-3.64932 2.69008 0.420931
-3.65321 2.68674 0.843062
-3.74554 2.97415 0.795411
-3.27716 2.54907 -0.000858132
-3.28309 2.59034 0.387728
-3.33656 2.88107 0.458766
-3.41373 2.88675 -0.00031295
-3.31497 2.5539 -0.420803
-3.4489 2.85754 -0.421714
2.54197 2.51235 -0.818482
2.41472 2.6332 -0.544993
2.5184 2.94974 -0.351517
2.69022 2.78474 -0.689751
2.87238 2.59405 -1.25908
2.79148 2.67897 -0.970483
2.95518 2.94184 -0.83002
3.08213 2.81693 -1.2594
-3.39813 2.57042 -1.18372
-3.25569 2.44957 -1.05263
-3.49317 2.82154 -0.845433
-3.57095 2.73685 -1.25603
-0.725945 2.94895 0.535504
-3.57894 2.73331 -1.25973
-3.65323 2.67586 -0.844374
2.95441 2.51731 -1.66331
3.13671 2.75912 -1.53343
-3.40592 2.55454 -1.47368
-3.39049 2.82277 -1.71903
2.75537 3.56505 2.75198
2.90545 3.82243 2.90992
3.03519 3.675 2.63779
-3.76448 2.56268 -1.71908
-2.85886 2.65089 -2.00408
-2.96315 2.51366 -1.70408
-3.13654 2.75144 -1.87265
-2.98158 2.82629 -2.1324
-2.41248 2.67565 -2.38493
-2.53341 2.52113 -2.11397
-2.69253 2.76464 -2.28165
-2.56888 2.92075 -2.55814
0.233317 2.72593 -2.74849
0.366187 2.54922 -2.49548
0.511284 2.78539 -2.69014
0.374323 2.97043 -2.91815
3.1579 2.53852 -3.53281
3.28005 2.62645 -2.94727
3.49016 2.81688 -2.94712
3.48733 2.81334 -3.36863
3.3014 2.67315 -3.67552
3.46432 2.83548 -3.85289
-0.101687 2.10193 2.22424
0.109235 2.10181 2.40488
-0.191126 2.34361 2.29732
-3.63564 2.2598 2.10093
-3.62415 2.24699 2.46832
-3.83825 2.4707 2.10209
3.44725 3.33519 2.0444
3.21511 3.53506 2.35714
3.49373 3.64789 2.26299
-0.536263 2.10289 1.79259
-0.326322 2.102 2.01386
-0.453981 2.48996 2.13285
-0.606621 2.3666 1.86412
-2.42951 2.21623 1.68396
-2.40206 2.13307 2.23255
-2.64401 2.38692 2.17024
-2.64211 2.40241 1.68395
-3.58329 2.31148 1.88447
-2.54261 2.06273 1.05264
-2.6689 2.37777 1.2629
-2.51011 2.02163 0.631579
-2.70291 2.34736 0.842046
-3.17408 2.30444 0.995224
-3.22225 2.26252 1.2669
-3.43393 2.43456 1.26589
-3.33007 2.45135 0.850809
-2.37654 1.89474 0.227431
-2.7258 2.32626 0.563966
-2.84372 2.24833 0.361295
-2.97149 2.19861 0.852196
-0.388046 2.10784 0.1094
-0.590293 2.1046 0.240807
-0.524348 2.52788 0.280626
-0.31121 2.52725 0.15412
1.25713 2.12004 -0.237966
1.10523 2.27814 -0.205309
1.25276 2.51885 -0.182643
1.38635 2.37337 -0.220281
-2.76267 2.04974 -0.631578
-2.88702 2.23805 -0.00164362
-3.05088 2.41802 0.0581723
-3.02211 2.45177 -0.42286
2.13567 2.07394 -0.798544
2.00429 2.19359 -0.542107
2.09625 2.52026 -0.36495
2.27711 2.35824 -0.676618
2.46683 2.15275 -1.25851
2.38337 2.24177 -0.955362
2.67651 2.3828 -1.25873
-3.00582 2.20368 -1.05263
-2.9007 2.12766 -0.925035
-3.09708 2.31579 -1.01125
-3.15789 2.34648 -1.07972
2.54013 2.08778 -1.63901
2.72309 2.3306 -1.51454
3.28547 2.57116 1.81273
3.53524 2.52506 1.89564
3.38177 2.95179 1.89474
3.30052 2.75012 1.84964
-2.96726 2.10859 -1.47368
-2.36881 2.28011 -1.93953
-2.52265 2.18766 -1.68016
-2.65181 2.37068 -1.80981
1.08045 2.90563 3.48423
1.09881 3.04223 3.70467
1.1731 3.2862 3.94761
1.40531 3.2237 3.49327
-3.79947 2.08857 -2.09711
-3.63714 2.22239 -1.82623
-3.91675 2.44201 -1.98557
2.82994 2.22901 -2.526
2.80456 2.24908 -2.10411
3.01469 2.4591 -2.104
3.04037 2.42574 -2.52579
-1.90109 2.31207 -2.31993
-2.0712 2.21079 -2.09531
-2.18429 2.3924 -2.22299
-2.05344 2.55612 -2.49477
2.25058 2.11027 -2.77068
2.0381 2.11252 -2.62216
1.95762 2.38881 -2.69623
2.10932 2.53516 -2.83897
-0.407118 2.16273 -2.87842
-0.442721 1.98966 -2.64474
-0.214879 2.32168 -2.72861
-0.381171 2.31579 -3.03472
2.90742 2.28834 -3.27057
2.83128 2.23362 -2.94774
3.0421 2.41508 -2.9475
3.02426 2.43675 -3.43132
3.67192 1.67857 2.24453
3.88494 1.67606 2.41542
3.96893 1.94034 2.33919
3.82365 2.08409 2.15607
0.0267859 1.72227 2.0808
0.201691 1.885 2.32258
3.1996 1.81581 1.86927
3.36097 1.67293 2.01348
3.47828 2.1019 1.94388
3.26879 2.10257 1.8329
-3.16569 1.88648 1.87895
-3.22726 1.80738 2.17214
-3.42544 2.01747 2.20717
-3.34103 2.13842 1.74168
-2.44232 3.08159 -2.81936
-2.72215 3.16675 -2.72686
-2.56114 3.27551 -2.95636
1.36859 2.25647 -2.3405
1.24935 2.1228 -2.20396
1.08326 2.32634 -2.3077
1.24343 2.50173 -2.46089
-2.08925 1.68414 1.05264
-1.97249 1.83024 1.68522
-2.18977 2.0103 1.6842
-2.22563 1.97601 1.2628
-1.05263 1.71605 0.854781
-0.877913 1.76615 1.21852
-0.950249 2.12046 1.24312
-1.04943 2.10442 0.856358
-2.02442 1.66326 0.694259
-2.26924 1.93826 0.842122
-2.12809 1.7241 0.439142
-2.29874 1.91121 0.542596
-2.31578 1.83418 0.301897
-2.42258 1.83033 0.855612
-0.470366 1.72935 0.0658493
-0.630792 1.89289 0.211052
-2.31578 1.78157 -0.0172905
-2.59682 2.01744 -0.000319221
-3.38565 2.89452 2.65408
-3.5635 3.17242 2.35949
-2.02918 1.79532 -1.60205
-2.12283 1.66769 -1.28753
-2.30336 1.9035 -1.45835
-2.1487 1.95934 -1.72457
-3.46684 1.68525 -2.00953
-3.25424 1.68664 -1.78701
-3.39106 2.07058 -1.66104
-3.54974 1.94053 -1.92591
2.38795 1.82983 -2.52664
2.38119 1.83147 -2.10452
2.59179 2.03736 -2.1042
2.59941 2.01666 -2.52629
-0.476709 1.80021 -2.40605
-0.525827 1.62442 -2.15891
-0.252421 1.9386 -2.26162
2.42926 1.8187 -2.94654
2.55982 2.01438 -2.99989
2.99463 1.77073 -3.79404
2.86818 1.74572 -3.46289
2.97067 2.17974 -3.57894
2.5123 1.74473 -3.84053
2.33372 2.03067 -3.99052
3.58383 1.46749 2.31161
3.74376 1.30527 2.566
0.210527 1.22109 1.80455
0.246398 1.37816 2.00933
0.385625 1.54364 2.19653
0.620048 1.47972 1.88711
0.0848996 1.15117 1.76725
0.139231 1.3929 1.94768
-0.141568 1.56504 1.84081
-2.37847 1.40796 1.40616
-2.55549 1.23775 1.79644
-2.66373 1.54712 1.57454
-2.5369 1.68918 1.25639
-1.72189 1.42477 0.875461
-1.59278 1.2864 1.05264
-1.77348 1.5774 1.26268
-1.81576 1.49697 0.776967
-1.47368 1.37462 0.490298
-1.47368 1.29669 0.888054
-1.221 1.47369 0.780845
-1.15156 1.49785 0.432484
-1.81286 1.47369 0.36657
-1.89473 1.55896 0.445981
-2.03557 1.47369 -0.320856
-1.96432 1.47369 -0.0890935
-2.15761 1.65963 -0.0170934
-2.19912 1.58955 -0.404661
1.68212 1.26011 -1.26649
1.57394 1.36114 -0.809956
1.79375 1.65742 -0.801988
1.86115 1.5167 -1.15855
1.47369 1.12061 -2.12475
1.18062 1.23277 -1.80413
1.10527 1.54427 -1.85736
1.28859 1.66827 -1.99348
-3.34495 1.30038 -2.13052
-3.17982 1.43941 -1.87191
1.95268 1.44042 -2.55692
1.94875 1.42294 -2.10549
2.16095 1.61794 -2.10489
2.09963 1.59557 -2.60564
-3.76883 1.29732 -2.54761
-3.59935 1.44027 -2.29548
-3.67196 1.68509 -2.21988
-3.88316 1.68467 -2.43127
-0.210526 0.774666 1.39343
-0.210526 0.830328 1.49251
-0.298034 1.26336 1.54572
-0.505246 1.26494 1.3816
-1.96888 0.969766 1.4119
-2.11772 0.688516 1.82711
-2.25233 1.12284 1.54482
-2.10168 1.27953 1.27138
-1.18478 1.01637 1.02316
-1.18151 0.974133 1.05264
-1.315 1.12369 1.05264
-1.5203 1.00444 -0.00179375
-1.48628 1.04013 0.254543
-1.89473 1.43054 -0.0723462
-0.116128 0.631579 -0.350918
-0.104969 1.00994 -0.195421
0.0201072 1.2448 -0.17789
0.175467 1.09071 -0.213252
-1.57007 0.86153 -0.470567
-1.89473 1.39382 -0.214142
1.1859 0.833166 -0.810433
1.10704 0.972942 -0.576517
1.20545 1.33638 -0.435638
1.41793 1.14855 -0.818007
-1.33804 0.928848 -0.881296
-1.47368 1.02101 -0.335367
-1.39263 1.05596 -0.382637
-1.46543 1.05264 -0.830547
-1.18096 0.958115 -1.17695
-1.32386 1.0982 -1.29114
-2.13403 0.804985 -1.23699
-1.97639 0.944794 -0.940559
-2.08018 1.39799 -0.631578
-2.09781 1.30543 -1.05263
-2.55147 0.8062 -1.66203
-2.38881 0.948163 -1.39412
-2.51655 1.27713 -1.27892
-2.67027 1.14777 -1.54268
1.43082 1.01101 -2.13497
1.19934 0.750842 -1.86614
-3.40271 0.787149 -2.495
-3.23192 0.934415 -2.24366
-3.51275 1.15967 -2.37962
3.73774 0.525772 3.75508
3.82681 0.87999 3.81625
3.57895 0.473649 3.57419
3.62284 0.789706 3.57818
3.1579 0.46593 3.11483
3.41434 0.582931 3.42728
3.41572 0.705376 3.35142
3.34471 0.775996 2.95109
2.73738 0.366226 2.66256
2.95804 0.475383 2.94408
3.12433 0.656786 2.8108
3.06901 0.711257 2.51475
2.76876 0.601161 2.27236
2.91889 0.866948 2.12657
-0.353027 0.631579 1.27458
-0.588753 0.620345 1.47909
-1.56917 0.541979 1.40507
-1.76702 0.401088 1.68744
-1.80888 0.631579 1.74965
-1.70459 0.823975 1.30719
-0.867263 0.500457 0.39925
-0.721668 0.565322 0.731904
-0.950171 0.879004 1.05264
-1.00136 0.66909 0.512437
0.082101 0.5297 -0.674703
-0.124647 0.471834 -0.351117
-0.122799 0.644479 -0.704626
-1.5349 0.472906 -0.893618
-1.47403 0.631206 -0.631106
-1.70347 0.995474 -0.631578
1.09949 0.580999 -1.26662
1.07256 0.608538 -0.993741
1.31901 0.812323 -1.33457
-0.210526 3.02849 -3.82775
0.631579 0.281189 -1.12705
0.355124 0.420361 -0.909867
0.287147 0.714259 -0.988808
0.435773 0.869551 -1.15221
-1.77292 0.422335 -1.16842
-1.8734 0.658062 -1.07536
0.942519 0.538641 -1.6249
0.806791 0.333532 -1.3501
0.745388 0.834121 -1.38174
1.03612 0.653663 -1.64681
-2.63306 0.421268 -1.9907
-2.42176 0.421807 -1.79284
-2.71565 0.663242 -1.91504
3.58774 1.04508 2.72553
3.6742 0.981688 2.93915
3.88898 1.14438 2.93458
-3.50656 0.421111 -2.80326
-3.29579 0.421268 -2.60823
-3.57408 0.639524 -2.74138
3.20397 -0.00183509 3.11464
3.41533 -0.00178252 3.31473
1.62137 0.00991365 1.24394
1.84312 -0.0191742 1.51488
1.8871 0.234352 1.48201
1.69075 0.457033 1.22579
-0.376304 0.0440441 -0.00479559
-0.331189 0.129223 0.320511
-0.447156 0.250978 0.472165
-0.602106 0.227697 0.143098
0.0220764 0.477247 0.891903
-0.148144 0.631579 1.20212
-0.153066 0.789085 1.38496
0.177475 0.635281 1.0484
0.209481 0.208133 -0.632845
-0.0422322 0.00939556 -0.289256
-2.36751 1.40329 -0.974744
-2.50985 1.78832 -0.730099
-2.53658 1.74811 -1.05263
-0.884429 -0.0218166 -0.732279
-0.741724 0.147394 -0.416837
-0.955183 0.293834 -0.431248
-1.05091 0.212045 -0.633377
0.670773 0.177668 -1.07648
0.68735 0.0734746 -0.907351
0.910247 0.354267 -0.956232
0.615985 0.193206 -1.06893
0.569295 -0.0386573 -0.879726
-2.07243 0.0465216 -1.71643
-1.90625 0.195383 -1.46303
-1.9875 0.422927 -1.3799
-2.19981 0.42154 -1.58187
-3.38098 -0.0198357 -2.93691
-3.20661 0.132318 -2.69219
-3.81599 -0.0441127 -3.34502
-3.64039 0.108448 -3.10161
-3.7843 0.457863 -3.03962
-3.92121 0.34205 -3.2301
3.71773 -0.421309 3.4514
3.92849 -0.421224 3.64491
3.85052 -0.001119 3.71943
3.63958 -0.00120058 3.52288
2.84185 -0.422268 2.63514
3.05396 -0.421774 2.83587
2.98449 -0.00286921 2.91082
2.77069 -0.00234695 2.7011
2.40782 -0.425855 2.20552
2.62776 -0.423098 2.42722
2.53874 0.110535 2.47632
2.33631 0.0543729 2.23655
2.01078 -0.424895 1.67149
2.22968 -0.427301 1.99704
2.18883 0.0121761 2.03766
1.99712 -0.0220517 1.7304
1.75608 -0.421242 1.27843
1.87156 -0.276521 1.50233
1.51759 -0.4296 1.00206
1.4782 -0.195608 1.04803
-0.418703 -0.394164 -0.783618
-0.286695 -0.250085 -0.599534
-0.412944 -0.0258474 -0.428139
-0.567553 -0.175169 -0.666187
-1.23093 -0.379805 -1.29329
-1.06237 -0.22015 -1.04519
-1.22413 0.0439879 -0.967476
-1.34356 -0.0719995 -1.15675
-2.53371 -0.456993 -2.42582
-2.39873 -0.340833 -2.24286
-2.50951 0.0260132 -2.12224
-2.68091 -0.125392 -2.36557
0.381648 3.32283 3.50794
0.502057 3.43824 3.6869
0.38405 3.75092 3.81927
0.226189 3.59829 3.56506
-3.0338 -0.420169 -2.84705
-2.82295 -0.419952 -2.6605
-2.94556 0.00366599 -2.52923
-3.11901 -0.148385 -2.77173
-3.48088 -0.420324 -3.24567
-3.27018 -0.420214 -3.05751
-3.55591 -0.172332 -3.17867
-3.92623 -0.420446 -3.64532
-3.71562 -0.420392 -3.45608
-3.99203 -0.196931 -3.58615
2.92161 -0.89379 2.55523
3.11321 -0.751555 2.77896
-2.89977 -0.755342 2.62727
-3.03755 -0.631578 2.87433
-2.87068 -0.496654 2.74021
-2.83782 -0.493962 2.6717
-2.37124 -0.759391 2.26779
-2.51379 -0.631578 2.47054
-2.59752 -0.401884 2.47624
-2.40117 -0.40049 2.26654
-3.82861 3.41935 1.30241
-3.77861 3.40576 1.684
-3.99013 3.58854 1.68404
-3.99961 3.57929 1.46941
2.21399 -0.843253 1.6589
2.29036 -0.679007 1.92843
-1.4377 -0.674254 1.84735
-1.36644 -0.789161 1.89474
-1.47178 -0.62946 1.89893
-1.46718 -0.626329 1.87486
2.0232 -0.854826 1.27549
1.92457 -0.558814 1.42203
1.25406 -0.8566 0.410375
1.41341 -0.703419 0.689502
1.26483 -0.394374 0.758223
1.12959 -0.5151 0.566948
3.26255 2.63702 -2.52567
3.22508 2.67017 -2.10397
3.43506 2.88116 -2.104
3.47272 2.83876 -2.52558
0.829729 -0.942552 0.0938808
0.967554 -0.748706 0.27728
0.858243 -0.397262 0.413689
0.683618 -0.557744 0.162574
0.361834 -0.646372 -0.496707
0.537438 -0.846136 -0.134827
0.464496 -0.609684 -0.133427
0.401427 -0.402456 -0.504206
-1.23305 -1.05263 -1.67649
-1.11086 -0.921834 -1.47368
-1.4041 -0.543629 -1.52771
-1.73338 -1.01568 -2.02529
-1.52552 -1.0214 -1.85248
-1.68795 -0.423019 -1.68421
-1.86288 -0.584629 -1.92131
-2.93077 -0.813488 -2.96264
-2.75235 -0.658316 -2.72328
-3.37127 -0.848192 -3.36631
-3.1916 -0.692389 -3.12813
-3.80957 -0.881347 -3.77189
-3.62914 -0.725295 -3.53435
-3.91253 -1.05263 3.72239
-3.96373 -0.815742 3.69561
-3.40774 -1.05263 3.33381
-3.30049 -1.21124 3.83595
-3.43411 -0.969922 3.67997
-3.54292 -0.631578 3.26499
-3.82452 -1.18241 3.40035
-3.78226 -0.758149 3.45612
3.6449 -1.26365 3.09684
3.85623 -1.26334 3.289
3.78816 -0.844637 3.36929
3.59747 -1.00281 3.14094
-3.36732 2.5565 2.72597
-3.57139 2.71479 2.74112
-3.57058 2.77176 2.74283
-2.40029 -1.12461 3.09517
-2.54995 -1.28322 3.34962
-2.68093 -1.00855 3.19902
-2.52828 -0.83765 2.9455
-3.32307 -1.26737 3.02613
-3.38136 -0.631578 3.03533
3.20221 -1.26765 2.68722
3.41841 -1.26493 2.88953
3.35381 -0.877685 2.96139
3.16566 -1.032 2.72944
-1.94481 -1.05263 2.32443
-2.08702 -1.24805 2.96081
-2.21416 -0.963257 2.81537
-2.12405 -0.653092 2.31579
-2.03335 -1.18341 2.23375
-2.04554 -0.631578 2.15638
2.2526 -1.1173 1.25887
2.31353 -1.0552 1.4781
-1.95748 1.43059 0.999426
2.09941 -1.27325 0.846314
1.94385 -0.997164 0.991698
1.62221 -1.37782 0.286128
1.82113 -1.12347 0.709808
1.68415 -0.850388 0.840613
1.53991 -0.982592 0.572588
1.10634 -1.25991 0.139539
1.30715 -1.27226 0.210527
1.06874 -1.03136 0.201871
-0.00284148 3.03332 -3.25402
0.0394186 3.25733 -3.48165
3.36264 1.98844 -3.8319
3.1694 2.26222 -3.56794
0.315848 -1.23121 -0.322918
0.395034 -1.29532 -0.0855134
-1.08775 -1.0804 -0.842485
-1.22222 -1.05263 -0.442707
-1.2969 -0.991138 -0.613008
-1.28168 -0.919034 -0.822895
-2.35775 1.69587 -0.557851
-2.5743 1.89474 -0.544573
-2.1563 -1.05263 -1.69099
-2.239 -1.07109 -1.25578
-2.00487 -0.961947 -1.30352
-2.05195 -0.980372 -1.55656
-3.46901 -1.34825 -3.66538
-3.23754 -1.39015 -3.46553
-3.55555 -1.00638 -3.6
3.64644 -1.83847 2.88652
3.93542 -1.68536 3.21781
-1.91054 -1.6099 2.73685
-2.10717 -1.68703 3.36703
-2.23849 -1.40614 3.21765
-2.73698 -1.47386 2.73677
-2.95081 -1.68609 2.94401
-3.01673 -1.26901 2.81591
-2.80296 -1.26876 2.68239
3.04085 -1.59018 2.10988
3.09745 -1.53869 2.39232
2.98678 -1.34102 2.42523
2.78262 -1.28299 2.19484
-1.12628 -1.51719 2.22465
-1.05263 -1.68715 2.42757
-1.14431 -1.38807 2.33033
-1.11696 -1.25291 2.08689
2.74713 -1.0292 2.30353
-1.5823 -1.51579 2.28186
-1.47368 -1.58995 2.46689
-1.49587 -1.2343 2.31579
-1.47368 -1.17429 2.15226
2.6732 -1.52939 1.25897
2.73151 -1.47869 1.48489
2.54922 -1.2449 1.6239
2.45886 -1.33085 1.26115
2.07253 -1.75823 0.29318
2.25319 -1.52703 0.70231
1.97444 -1.40116 0.56066
0.0111801 -1.47368 -0.00211462
-0.00205776 -1.57322 0.428776
-0.142427 -1.44258 0.293855
0.0905635 -1.45367 -0.0250364
0.00847763 -1.5978 -0.452244
0.202955 -1.38699 -0.447157
-0.36122 -1.64804 -0.385719
-0.257379 -1.48827 -0.18854
-0.372062 -1.29911 0.0791087
-0.54247 -1.43096 -0.272131
-2.62846 -1.55289 -0.842377
-2.50806 -1.6994 -0.449199
-2.32345 -1.46838 -0.622359
-2.42033 -1.40212 -0.840349
-0.771766 -1.69107 -1.25597
-0.793042 -1.69544 -0.856785
-1.02945 -1.17217 -0.683677
-0.851067 -1.21046 -1.33501
-3.12322 -1.49684 -1.52045
-2.9725 -1.55623 -1.22531
-2.84796 -1.3983 -1.34163
-2.942 -1.27655 -1.7495
-3.55149 -1.47368 -2.52637
-3.51883 -1.49535 -2.10029
-3.28766 -1.37234 -2.14052
-3.37237 -1.39615 -2.49566
-3.39594 -1.50156 -2.94925
-3.27385 -1.44414 -2.81092
-3.75154 -1.68876 3.44789
-3.96142 -1.68764 3.59895
-3.10306 -1.50312 -3.2265
-3.08475 -1.50389 -3.12193
-2.80659 -1.42977 -3.06387
-3.01772 -1.40013 -3.26446
-3.66449 -1.72514 -3.88169
-3.72308 -1.25832 -3.86963
-3.666 -2.01829 3.51746
-3.80489 -2.14087 3.65161
3.84818 -2.16202 2.91586
3.9866 -1.92445 3.17083
-1.47368 -2.0842 2.91166
-1.64495 -2.07879 3.39697
-1.78583 -1.8092 3.23792
-1.6419 -1.65206 2.97975
-2.87858 -2.02307 3.07444
-2.99458 -2.14499 3.19599
-3.15331 -1.88925 3.16047
-2.26396 1.58173 -0.631578
3.66715 -2.0601 2.69193
3.58002 -1.89318 2.73526
-1.32029 -2.31578 2.66663
-1.05263 -2.14518 2.86022
-1.1557 -1.83266 2.77926
-2.01765 -1.95438 2.69023
-2.13997 -2.10589 2.82578
-2.14049 -1.72723 2.57895
3.49157 -1.96599 2.10397
3.47608 -1.90879 2.56454
3.34077 -1.75994 2.5536
3.27186 -1.79135 2.10601
-0.669245 -1.91473 1.44907
-0.783139 -2.06272 1.72274
-0.947094 -1.84759 1.53246
-0.900169 -1.67487 1.30144
0.717861 0.439003 -0.423722
0.875106 0.837344 -0.39026
1.025 0.688986 -0.707916
2.98596 -2.07414 0.791691
3.09174 -1.94906 1.1692
2.95184 -1.76672 1.28993
2.80989 -1.83111 0.954389
0.0711929 -1.9915 0.938815
-0.0528135 -2.14094 1.22071
-0.207303 -1.89248 1.0554
-0.0420399 -1.81803 0.815333
-2.23739 -1.94351 0.84301
-2.10496 -1.97812 1.28328
-1.95468 -1.85655 1.15078
-2.02853 -1.80657 0.843955
-3.07243 -1.96298 -0.736104
-2.93487 -2.04015 -0.418841
-2.79195 -1.85319 -0.554051
-2.93867 -1.77485 -0.862368
-0.552365 -2.31578 -1.20832
-0.440324 -2.2443 -1.05263
-0.361098 -1.89473 -0.967726
-0.41424 -1.67559 -1.3139
-2.97539 0.799273 -2.08006
-2.80784 0.944383 -1.82309
-2.92608 1.29504 -1.70938
-3.08871 1.15898 -1.96314
-0.786422 -2.12878 -1.25211
-0.704303 -1.99772 -1.00422
-3.99102 -1.90143 -1.90598
-3.90243 -1.9721 -1.68069
-3.69453 -1.80841 -1.6787
-3.84397 -1.69426 -2.0582
-1.47368 -2.53302 3.32521
-1.63844 -2.4972 3.82132
-1.784 -2.2375 3.65633
-3.8176 3.44236 2.14399
-3.98574 3.59305 2.02806
-1.73816 1.16766 -0.631578
-3.28477 -2.42901 3.50592
-3.40619 -2.55642 3.63588
-3.56139 -2.29582 3.58862
-3.40511 -2.1398 3.4162
-1.85757 -1.90922 1.43072
-1.66876 -1.9491 1.71569
-1.5796 -1.84774 1.54094
-1.71172 -1.77521 1.28743
-2.31578 -2.59326 3.01482
-2.55498 -2.5256 3.25475
-2.70804 -2.29735 3.16922
-2.55516 -2.14259 3.00131
3.98102 -2.33123 2.52638
3.98993 -2.32492 2.7756
3.96102 -2.34327 2.10342
3.74905 -2.17528 2.1038
-1.85864 -2.32071 2.3045
-1.67023 -2.40975 2.51433
-1.52634 -2.31578 2.68888
-1.69292 -2.19773 2.15994
-0.417562 2.98204 0.2895
-0.253519 2.85849 0.187259
3.89369 -2.40006 1.68174
3.68393 -2.22662 1.68149
-0.632132 -2.31615 1.89432
-0.79475 -2.40433 2.12663
-0.906977 -2.23056 1.99692
3.80723 -2.51204 1.23153
3.6172 -2.28364 1.40182
0.101858 -2.39322 1.38619
-0.0270515 -2.54517 1.66291
-0.177767 -2.29204 1.50089
3.02588 -2.45554 0.333421
3.15527 -2.31785 0.634579
2.84813 -2.25338 0.38744
-3.5296 -2.35661 -0.696697
-3.43362 -2.43539 -0.424937
-3.22283 -2.26628 -0.425202
-3.35792 -2.11521 -0.857494
-0.589702 -2.43319 -1.27667
-0.458495 -2.3547 -0.996067
-1.47368 -3.02487 3.67138
-1.08363 -2.75324 2.71747
-1.23438 -2.85791 2.94839
-1.09037 -2.59109 2.87125
-1.26258 -2.50211 2.53554
-2.66807 -2.7626 2.65461
-2.53132 -2.82081 2.94324
-2.53249 -2.64185 2.52408
3.083 2.95327 -3.61621
2.87208 2.95434 -3.47967
2.77928 3.20289 -3.55388
2.93632 3.35861 -3.71358
2.37694 0.54954 1.83324
2.44552 0.332182 2.15888
2.66612 0.737407 1.98143
2.52937 0.862559 1.76828
-0.326856 -2.82153 2.22136
-0.457282 -2.9734 2.49675
-0.608176 -2.72033 2.33432
-0.447362 -2.61629 2.09246
-3.04985 -2.80047 2.10712
-2.93101 -2.84798 2.5209
-2.77176 -2.71617 2.37222
-2.83918 -2.66843 2.10739
0.124619 -2.79852 1.82609
-0.00607516 -2.9514 2.10089
-0.15559 -2.69665 1.93973
0.590113 -2.76231 1.44617
0.457903 -2.92317 1.71021
0.308337 -2.67437 1.54429
0.436676 -2.5155 1.27313
3.92551 -2.79033 0.837159
3.99375 -2.74179 1.06324
3.71491 -2.62565 0.837102
1.41784 -2.7606 1.0315
1.2693 -2.94572 1.25996
1.13668 -2.70131 1.08726
1.269 -2.55343 0.893307
-3.44888 -2.83853 0.841829
-3.3972 -2.87342 1.26352
-3.18587 -2.71523 1.26334
-3.23834 -2.67539 0.841811
3.75492 -2.98741 0.369096
3.619 -2.70489 0.589908
2.6832 -2.76312 0.612513
2.49875 -2.96311 0.827594
2.40265 -2.69634 0.66151
2.63723 -2.38549 0.367727
-1.12947 3.11823 -3.62129
-1.26256 2.94707 -3.36793
-1.4101 3.19132 -3.54368
-3.507 -2.79537 0.419899
-3.29692 -2.62935 0.420012
2.01982 3.49297 3.26194
2.13683 3.6829 3.38714
2.30151 3.58903 3.14636
-2.76796 1.42808 -1.43804
-2.83569 1.71615 -1.29157
-3.06327 1.68665 -1.57621
-3.55488 -2.7564 0.151345
-3.35428 -2.54013 -0.0283307
-0.376262 -2.93032 -1.70925
-0.334296 -2.94972 -1.19019
-0.492434 -2.59207 -1.59625
-3.15789 -3.43714 3.95529
-3.37011 -2.96508 3.87128
-2.68459 -3.1696 3.55093
-2.54541 -3.26422 3.80884
-2.40815 -3.15789 3.68108
-2.34821 -3.07437 3.57895
-0.766742 -3.25016 3.05513
-0.8955 -3.40392 3.32685
-1.04979 -3.15609 3.15996
-0.879416 -3.05933 2.93017
-0.307938 -3.22996 2.65725
-0.439264 -3.38171 2.93241
-0.588653 -3.12658 2.77156
3.54533 -0.72211 3.18884
3.48957 -0.421371 3.24107
3.27851 -0.421552 3.04569
-3.55423 -3.17432 2.23215
-3.5024 -3.204 2.52762
-3.29265 -3.06795 2.52817
-3.39913 -3.03378 2.0983
1.40579 -3.19143 1.44124
1.26635 -3.36681 1.68314
1.12492 -3.12186 1.51093
-3.92674 -3.21713 0.841676
-3.8821 -3.25024 1.26316
-3.67167 -3.08579 1.26318
-3.71662 -3.04948 0.841759
3.50943 -3.19853 0.598821
3.34497 -3.38303 0.831187
3.22907 -3.1177 0.663896
3.48051 -2.82641 0.34015
-0.241768 -3.35571 -1.66276
-0.394558 -3.37642 -1.30345
-1.05263 -3.31511 -1.65606
-0.836084 -3.36559 -1.33289
-0.822465 -2.93354 -1.31871
-0.909258 -2.813 -1.78726
-0.426123 -3.41178 -2.07005
-0.572521 -3.09294 -1.94924
-1.50278 -3.59471 3.98137
-1.66618 -3.35256 3.80025
2.49263 3.8988 3.34567
2.32985 3.98982 3.5911
-3.86325 -3.65538 3.37065
-3.75705 -3.71523 3.75893
-3.58881 -3.57357 3.5943
-3.65165 -3.53088 3.37041
-0.29049 -3.63845 3.0925
-0.422361 -3.79032 3.36737
-0.571046 -3.53409 3.20732
0.162938 -3.61312 2.69924
0.0309192 -3.7669 2.97237
-0.117951 -3.51128 2.81144
0.0129141 -3.3588 2.53709
-1.35645 0.93037 -0.210526
-1.15028 1.21609 0.0282158
-3.99304 -3.58373 2.71368
-3.95397 -3.60637 2.94837
-3.74485 -3.46753 2.94909
-3.83048 -3.43346 2.55548
2.27029 -3.5994 1.45525
2.11888 -3.78424 1.68659
1.98934 -3.53689 1.51311
2.1189 -3.38762 1.32242
-1.02847 -3.78899 -1.4859
-0.839164 -3.79005 -1.36767
-1.36329 -3.73434 -2.14409
-1.24777 -3.77349 -1.65546
-1.18492 -3.4522 -1.7128
-1.17447 -3.44876 -2.10221
2.53625 -1.67776 0.827399
2.36815 -1.42442 0.983935
-0.100428 -3.91974 3.2461
0.646777 -3.98998 2.74779
0.807339 -3.88302 2.51448
-0.208173 -3.99615 -1.87182
-0.209687 -3.99636 -1.90517
3.58429 2.93638 -3.97452
3.93417 3.21155 -3.78971
-0.283816 -3.77745 -2.14503
-0.466453 -3.80607 -2.39067
-1.24494 -3.77251 -2.51776
1.82838 -0.717839 1.13915
-0.88654 -3.72626 -2.64903
-0.898974 -3.94031 -2.80821
-1.15608 -3.94798 -2.77659
-2.56276 -1.35197 -2.83513
-2.3812 -1.29456 -2.6395
-2.52441 -0.811254 -2.61369
-2.67455 -0.936545 -2.79376
3.97911 -0.68636 3.59804
3.96415 1.07377 3.24206
-3.96673 -3.18548 0.522331
-3.81018 -3.03066 0.39712
-1.5705 -3.18966 3.53737
-1.89283 -3.04041 3.49311
0.819264 1.70472 -0.235189
0.659056 1.86225 -0.207446
0.815963 2.12537 -0.19888
0.939906 1.99734 -0.224416
1.46108 1.06924 -1.0951
3.85529 3.3024 -2.10407
3.35801 0.943799 2.54978
3.48594 -1.62144 2.8266
3.35281 1.29363 2.21607
3.48189 1.17191 2.42962
3.43238 -2.01589 1.68143
3.39312 -2.39463 0.796372
3.53907 -2.3477 1.12114
3.34122 -2.66802 0.3505
3.79049 -3.49103 0.708578
3.87161 -3.16835 0.39319
1.48038 1.46475 -0.624543
1.51975 1.71278 -0.471956
3.55286 3.18471 -1.54482
3.49372 3.24489 -1.26007
-0.927969 0.911237 1.08549
-0.793721 0.932156 1.63276
-1.00077 1.08124 1.60067
-0.900784 1.05264 1.16962
3.64533 3.09196 -2.10398
3.59044 2.29036 -3.98797
2.93959 -1.59977 1.64659
3.22324 -1.83581 1.68095
3.16882 -1.88524 1.45201
3.10986 3.20501 -0.696093
-0.449131 -3.79459 -1.38737
-0.210526 -3.83868 -1.63689
3.13955 2.54197 -3.57894
2.95346 3.70219 -3.91417
3.18207 3.60379 -3.98627
2.79006 -1.42069 1.76368
3.18864 1.88556 -3.91849
2.52685 3.66985 3.05597
2.7743 3.97166 3.19027
2.52171 2.86747 2.19699
2.52605 3.07147 2.4064
2.49267 -0.924966 2.07255
2.68599 -0.749993 2.36722
2.75419 1.02746 1.88026
2.62139 -1.1358 2.08154
2.52622 -3.65731 1.40443
2.52577 -3.86882 1.59378
2.85859 -3.94333 1.52475
2.97817 -3.79787 1.34606
2.63897 3.23016 -0.255263
2.47327 3.39365 -0.107797
2.60752 3.48978 -3.62352
2.49531 3.36305 -3.49047
1.4609 3.59245 3.97922
2.65922 2.10581 -3.15789
-3.11634 -0.972458 -3.19543
2.34559 1.69872 -3.15789
2.729 2.32132 -3.97428
2.52695 3.48151 2.84559
2.52569 3.27273 2.61647
2.27428 2.34042 1.87463
2.52154 2.63047 1.984
2.58841 2.3735 1.76359
2.36466 -0.966227 1.76468
-1.1996 -3.00736 3.31384
-1.05263 -3.00672 3.73231
-1.16669 -2.67417 3.66454
-1.05263 -2.58188 3.29566
2.27729 1.94129 -1.25818
2.31201 1.89887 -1.48573
2.17929 1.69757 -1.647
2.35345 1.8569 -1.76502
2.01948 1.61184 -3.45705
1.95781 1.47369 -2.74782
2.10841 3.84367 -3.69362
2.10827 3.6312 -3.53359
2.3217 3.58205 -3.57678
2.22892 1.89474 -3.7124
2.29251 1.91387 -3.49653
1.85604 3.60786 3.54345
1.69034 3.70199 3.80824
2.06076 3.93071 3.75052
-2.43762 -1.99484 3.9057
-2.56929 -1.72111 3.75601
0.144453 -3.20539 2.26331
-0.136144 -3.10342 2.37616
1.29602 1.69186 1.75639
1.18057 1.83095 1.96644
1.2951 2.02167 2.10178
1.46206 1.90087 1.88857
0.0490295 -0.902785 -0.7682
0.198978 -0.84096 -0.629026
0.210527 -0.399923 -0.551999
-0.0835625 -0.519302 -0.714847
1.68245 1.96506 1.83173
1.64142 2.20396 2.09249
1.99303 2.26014 1.94835
2.23124 2.05246 1.65282
2.11729 0.389727 1.65269
1.9427 0.514822 1.43601
1.68352 -2.81674 0.985155
1.68286 -3.02871 1.1693
2.10518 -3.11318 1.09136
2.10446 -2.90438 0.916959
-3.92066 -2.38334 -1.14438
-3.80739 -2.51341 -0.82048
-3.63978 -2.26523 -0.977429
-3.75807 -2.12993 -1.29991
1.87749 2.74873 -0.214076
1.71782 2.90864 -0.142545
2.10824 3.03623 -0.163396
2.15997 2.78514 -0.271198
1.87275 1.92113 -0.655732
1.71152 2.07482 -0.385838
1.63931 1.16877 -2.22334
1.73011 1.21858 -1.68301
1.93512 1.43365 -1.68255
1.79426 2.67262 -2.76719
1.67222 2.53875 -2.62675
1.68699 3.42992 -3.26973
1.68712 3.21745 -3.10595
1.68536 3.89941 -3.66205
1.68579 3.68878 -3.48353
1.34635 2.84722 3.02879
-3.47842 -3.61549 3.87852
1.68281 -3.46921 1.5807
1.68293 -3.25856 1.38034
-0.061053 -1.78307 -0.794889
0.0325905 -1.32033 -0.816023
1.77718 1.36595 -2.94865
1.79979 1.30331 -2.41795
1.91542 1.39953 -2.9615
1.59756 2.65331 -0.189147
1.80039 2.45518 -0.277453
0.0482248 3.37034 0.139518
-0.159262 3.36886 0.232569
-0.071125 3.79123 0.264165
0.142558 3.79006 0.183108
1.50048 1.02519 -1.37519
1.51716 1.0099 -1.68425
1.53536 1.97138 -2.27397
1.69011 2.1176 -2.41077
1.46078 1.06133 -2.31579
1.26526 3.00613 -2.85424
1.26567 2.79329 -2.68608
1.50987 2.75271 -2.725
1.66776 2.92371 -2.88379
1.26351 3.46863 -3.25271
1.26403 3.25772 -3.06872
1.26259 3.91295 -3.65903
1.26298 3.70265 -3.4643
-0.123153 3.36576 3.0728
0.0867078 3.36495 3.27657
-0.200684 3.59386 3.1475
-1.0976 0.590695 -0.00147439
-1.05935 0.625473 0.229043
-1.25757 0.851288 0.384315
1.02066 2.34281 2.7011
0.792641 2.36607 3.06485
1.14725 2.64697 2.96235
1.25564 2.43655 2.59825
0.839985 -3.65068 2.2398
1.14006 -3.9499 2.3696
1.27431 -3.78311 2.11027
0.839635 1.53947 1.82514
0.691675 1.76655 2.19157
0.839478 -3.24575 1.80281
0.839873 -3.45551 2.02902
1.12956 -3.5371 1.93912
0.84137 1.13426 1.39485
0.839526 1.34875 1.61336
1.26193 1.42799 1.51862
1.3676 1.1584 1.24589
0.83884 -2.83908 1.36944
0.839409 -3.04834 1.59199
-1.08477 -3.54988 -2.34872
0.841079 0.708892 0.988943
0.839799 0.916967 1.17584
1.32287 0.845465 1.05264
1.19768 0.682669 0.973893
-2.79926 1.83521 1.37823
-2.92475 1.71392 1.72537
-3.08531 1.96179 1.59702
-2.93862 2.03192 1.25008
1.04028 -0.231452 0.641438
-3.36749 -3.24005 2.97163
-3.21937 -3.11885 2.84361
0.839771 -1.99849 0.543194
0.838976 -2.2094 0.733927
1.26244 -2.27378 0.666055
1.26127 -2.06792 0.506955
0.84212 -1.49496 0.19695
0.858485 -1.70141 0.301368
1.27748 -1.59327 0.232215
1.08215 -1.47975 0.208102
0.839481 3.46071 -3.27242
0.840156 3.24954 -3.07041
-2.72547 -1.48185 -1.06579
-2.52366 -1.18185 -1.33945
0.838418 3.88688 -3.69415
0.839057 3.67578 -3.48379
0.684735 3.62978 3.9628
0.415361 2.52441 2.95012
0.585615 2.69386 3.19087
0.917206 2.5657 3.31201
-0.691485 -1.54826 -0.554377
-0.972317 -1.15605 -0.391589
0.393751 2.08168 2.62871
0.531065 2.22419 2.81053
0.707163 2.17694 2.87025
0.631579 2.05036 2.69244
-3.51754 2.36956 1.60385
0.609971 -3.17166 1.87974
0.477323 -3.33117 2.14604
0.840696 3.02381 -2.85796
0.841515 2.81205 -2.66721
0.553126 1.07938 1.44487
0.421431 0.655148 1.02975
0.414854 0.89809 1.28379
-1.03304 1.61744 0.399761
-0.857765 2.11921 0.441354
0.56768 -2.35225 1.01422
0.838956 -2.63622 1.15863
0.838435 -2.4274 0.944908
0.422708 0.239465 0.60137
0.420866 0.451062 0.804642
0.844667 0.383448 0.756978
0.650825 0.21814 0.625816
0.57625 -0.276148 0.254914
0.417904 -1.51964 0.174432
0.510869 -1.70787 0.347337
0.556586 1.58162 -0.221613
0.417117 1.70757 -0.194171
0.389507 3.38554 -3.34629
0.525421 3.20794 -3.10834
0.544757 3.62395 -3.53308
0.181659 3.12238 3.18357
0.430013 2.96247 3.28234
0.302706 2.83916 3.08635
0.254538 2.36443 2.70272
-1.77753 -1.3708 2.82726
0.41952 -3.91493 2.83074
0.459699 -3.68121 2.54363
0.539204 1.72747 2.45881
-2.29079 0.666233 -1.4984
0.257068 -1.87235 0.659973
0.275906 1.37153 -0.201541
0.419259 1.24332 -0.224587
0.0181311 1.00072 -1.08343
-0.0131331 1.44203 -1.5131
0.0161916 1.22347 -1.29701
0.423215 1.2116 -1.35006
0.447039 1.40562 -1.48956
-0.0360369 1.86177 -1.95076
-0.0009223 1.64887 -1.71549
0.444027 1.68635 -1.70262
0.420629 1.89179 -1.89473
-0.0595387 2.2682 -2.40353
-0.0230632 2.05843 -2.15026
0.440719 2.15578 -2.10036
0.228808 2.30924 -2.3224
-0.00749232 2.86143 -3.04612
0.246849 3.13749 -3.18082
0.263607 3.54555 -3.61853
-0.411984 2.98243 2.5069
-0.241295 3.11096 2.76951
-0.422605 1.6977 1.67711
-0.243621 1.84631 1.92539
-2.7438 3.57488 -3.16231
-2.9112 3.46742 -2.93915
-3.02548 3.65618 -3.07113
2.03919 1.66212 -1.28238
1.98407 1.79387 -0.929777
-0.418554 -2.38751 1.81273
-0.0365023 0.965789 1.60475
-0.416248 -1.99053 1.35761
-0.417351 -2.20299 1.60377
-0.454939 0.505169 0.854859
-0.401753 -1.58954 0.853941
-0.415119 -1.81547 1.1486
-0.00217892 0.230991 0.596341
-0.26244 -1.50362 0.575038
-0.203567 3.13893 0.213927
-0.044844 2.98102 0.104882
-0.00150809 0.0774918 0.397541
0.00437746 -0.118735 -0.140071
-0.396857 -1.31577 0.39006
2.48444 -3.36455 1.16491
-2.21827 3.21249 -3.0993
-2.07066 2.96679 -2.92737
-3.68565 -2.83089 3.94009
-3.81433 -2.54871 3.85273
-0.00566778 2.10799 -0.0525245
-0.00399211 1.68646 -0.114826
-1.26125 0.318577 -0.739079
-1.24581 0.526237 -0.469553
1.83377 1.65599 -2.37029
-1.16255 -2.25856 3.22368
3.3706 2.94426 -1.67876
3.60274 3.13384 -1.82567
-1.1637 -1.10041 -0.0426854
-1.2753 -1.26046 0.433696
-0.780175 -1.17193 0.438474
-0.815067 -1.10616 -0.00998534
1.65008 -2.15784 0.47621
1.74242 -1.62125 0.243768
2.19518 -1.98743 0.29058
1.65321 -2.51374 0.745498
2.10527 -2.63344 0.708838
0.418179 2.5283 -0.0989401
0.417847 2.94956 -0.038384
0.841047 2.94873 -0.100963
0.841379 2.52721 -0.153933
1.26295 3.36923 -0.068235
1.26286 3.79062 -0.0113652
1.68425 3.7898 -0.00838686
1.68429 3.3677 -0.0667726
-3.18968 -1.86943 -1.01546
3.18623 1.02195 2.28713
-0.230677 -1.26037 -1.04418
-0.50699 -1.2673 -1.25813
1.26312 2.9475 -0.123125
-3.17992 2.29521 -0.420978
-3.16679 2.30918 -0.143619
1.5677 3.50707 3.69213
2.10736 3.36256 -0.0672724
1.62448 1.6505 -2.21132
-1.98988 -0.960715 -2.22224
-2.13379 -0.462418 -2.08265
1.64356 1.67988 1.58312
1.48365 1.46973 1.47699
-0.83685 -2.64005 2.42755
-0.837952 -2.82487 2.63629
1.44555 0.421503 1.06516
1.65765 0.909041 1.16768
-2.69691 -1.92536 -0.27288
-2.62052 -1.98405 -0.00258518
-2.41022 -1.82966 -0.00256175
-3.75894 -3.29172 2.09772
-3.83768 -3.28034 1.68459
0.832906 0.102815 0.631579
0.697393 0.0377702 0.522169
-0.77747 1.41791 -1.95321
-0.781905 1.2446 -1.75837
-0.432302 1.35424 -1.67944
-0.578187 1.4402 -1.9329
1.6828 -3.89511 2.00142
0.840815 3.37003 -0.0429573
0.871423 1.24294 -1.5834
0.838016 1.65663 -1.77055
-1.68452 3.47524 -3.68826
-1.68471 3.26436 -3.46667
1.25855 2.25956 2.39029
-1.17088 -2.34135 2.27823
0.959115 1.95863 2.24309
1.1779 0.495024 0.910432
-0.322299 3.36518 2.86317
-0.533871 3.36507 2.6137
-2.73684 -2.99522 3.47736
-2.96425 -2.55483 3.43344
2.92393 1.7634 1.71206
3.12429 1.53525 1.91771
0.872855 -1.24355 0.0892948
-1.47368 1.33164 1.81204
-1.67106 1.36231 1.99933
-1.78653 1.56315 2.00083
-1.71162 1.6114 1.80188
-0.772017 -2.57571 -1.57993
-3.79659 -1.55771 -2.95076
-3.79669 -1.54022 -2.53557
-0.844745 2.64019 -3.26355
-0.84418 2.83466 -3.4726
-0.349421 2.73685 -3.53317
-0.319528 2.53467 -3.35946
-1.68602 2.24769 -2.38847
-1.68606 2.44262 -2.59916
-1.3791 2.363 -2.68649
-1.23021 2.1198 -2.51014
0.417629 3.37072 0.0268375
0.417481 3.79183 0.0955059
0.840624 3.79123 0.0189584
-2.66497 -0.593385 2.78464
-3.66745 2.67286 8.97721e-05
-2.68034 1.93459 -0.806892
-0.661687 0.192296 -0.139242
-0.826233 0.345499 0.0043356
0.631579 1.83626 2.45397
-2.97772 1.55327 2.21292
-2.96841 1.76914 2.40785
-2.63075 1.79848 2.39099
-2.5028 1.65678 2.31579
0.507902 2.35183 -2.28172
0.843604 2.35515 -2.27743
0.846393 2.12334 -2.09193
0.41872 2.10686 -0.152856
0.280747 -0.165966 -0.286111
0.500711 0.387182 -0.232285
0.661643 0.165999 -0.580278
1.07494 2.71201 3.21057
-3.17208 2.3037 -0.705759
0.536398 -1.93976 0.587658
3.46172 -3.63833 1.00037
3.79055 -3.72519 0.91928
2.1953 1.82983 -3.71466
-1.75744 -0.920853 2.42711
-1.48718 -0.669355 1.89474
0.849368 1.85335 -1.90122
0.410342 -2.10694 0.83358
2.46059 2.53367 -3.04801
2.67165 2.53209 -3.18977
-1.22159 -1.37785 0.787183
-0.852967 -1.34956 0.793164
-0.00656712 2.52928 0.0140981
-0.0508391 2.67569 -2.86325
2.23021 0.837192 1.53791
2.02056 0.83869 1.38635
-2.33932 0.176608 -1.87311
-3.14396 0.653509 -2.32893
-1.0942 3.78902 1.34777
-0.857958 -3.46624 -2.42768
-0.902095 -3.19524 -2.20378
-0.616925 -3.56383 -2.32758
0.213835 1.05264 1.63344
0.506939 0.820906 -0.24614
0.437063 -0.0533313 0.339332
-1.85624 -1.49809 0.139045
-1.78336 -1.53481 0.422566
-1.57374 -1.41462 0.423398
-1.70768 -1.35703 0.00197496
-2.97966 -3.0304 2.97245
3.28387 3.02806 -1.25975
-0.799536 -0.382312 -0.987701
-1.4749 0.209145 -1.05148
2.91786 2.15702 1.68379
-0.840081 -2.99812 -2.01034
3.8782 3.74036 2.11919
3.6682 3.92865 2.37852
-1.98201 -2.3783 3.93681
-2.11944 -2.11768 3.77945
0.286655 -2.27054 1.10525
-2.20324 2.80087 -2.6657
-2.5365 -1.27039 2.52526
0.346408 -3.48799 2.41661
-1.93725 3.13422 -3.18289
-2.08464 3.37983 -3.3567
2.54319 -2.10801 0.323962
2.69967 -1.92452 0.674659
2.43083 -1.79457 0.534151
3.6329 2.49775 -3.96058
-0.284473 2.62273 2.39436
1.96981 -3.96406 1.93014
-3.69205 -2.64601 -0.424919
1.49934 1.02902 -1.99548
-3.28519 -1.58371 -3.4332
-0.0442363 2.45627 -2.60002
-2.10786 -2.77395 3.06455
-2.01376 -3.03675 3.51391
-1.68033 -2.79036 3.07001
-0.42569 1.00082 -1.1493
-0.411351 0.724765 -0.734715
-0.189738 2.69749 -3.22635
-0.434173 0.950566 -0.18427
-0.419152 1.26035 -0.0688378
-2.68248 -2.35056 1.26394
-2.59465 -2.39486 1.68721
-2.38247 -2.26916 1.68691
-2.47386 -2.20726 1.26483
-0.389754 -0.792675 -1.00785
-3.0691 0.421159 -2.39751
-1.791 0.968051 1.93584
-3.90254 -2.81933 -0.424852
-3.76604 -2.88228 0.00501687
-3.61513 -2.70828 -0.129923
-3.34423 2.08177 2.54165
-2.91545 2.08899 2.56387
-0.438072 3.3732 0.373585
-3.3737 -3.37566 3.37203
-2.21394 -1.54549 -0.344141
-2.08707 -1.60063 -0.00133353
-1.93589 -1.44874 -0.14193
-2.08661 -1.40142 -0.459028
-3.98081 -2.75297 -0.659202
-3.2237 -1.43294 -1.7993
-2.9684 -1.25004 -2.09523
-0.843812 3.04619 -3.70076
-0.843393 3.2408 -3.91037
-0.580082 3.17892 -3.97657
-0.272495 2.95013 -3.85525
-1.92169 2.72156 -2.7532
-1.68525 2.65459 -2.82379
-0.304556 1.54768 -1.8094
-1.82244 1.50367 0.0963887
0.628691 -3.58082 2.31374
-0.673142 2.64668 1.95237
-0.566269 2.86373 2.23456
1.29556 -0.0326685 0.918596
1.44426 0.0839789 1.0802
-0.712837 2.1028 1.58262
-1.24159 -3.41057 3.75732
-1.25816 -3.26963 3.44756
-0.845994 2.23371 -2.82673
-0.84533 2.42764 -3.03483
-0.591417 1.55497 1.43759
-0.908783 1.23357 0.0489278
-0.715869 1.60501 0.181419
-0.775353 1.54937 -2.1033
0.939138 1.20259 -0.329852
-3.24881 -1.61281 3.09072
-1.9369 -1.03172 -1.00475
-1.58323 -0.918944 -0.9146
-1.71373 -0.881486 -1.23584
-0.875166 0.885704 -1.25621
-0.830214 1.05264 -1.44729
-0.425939 1.14803 -1.36331
2.94779 -3.04167 0.723443
2.94454 -2.83731 0.558308
3.20578 3.10867 -0.977287
-0.72501 0.244442 1.26264
-1.2677 0.244878 1.41914
-1.33726 0.267529 1.51615
-0.843444 0.568129 1.50295
-1.04997 1.47477 -1.89351
-0.634453 -0.634438 -1.05093
-1.5918 1.82206 -1.97546
-1.71058 1.66573 -1.70968
-1.87048 1.90972 -1.87623
-1.7155 2.01382 -2.11538
-0.810988 -2.44166 -1.37328
-1.0144 2.52303 0.848373
2.59797 -3.21916 1.00237
2.94791 -3.5107 1.11117
2.94779 -3.30046 0.93396
-1.68481 3.06448 -3.25632
-1.77552 -2.73684 3.14142
-0.162291 -1.92518 -0.870657
-2.36454 1.00417 1.82776
-2.35829 0.993722 1.97337
-2.57405 1.19055 2.10786
-3.47099 -1.98273 -1.1767
-3.34854 -1.79949 -1.29312
1.75639 2.39978 2.22976
-0.875278 -3.81285 3.76252
-0.554372 -3.94237 3.6422
-0.530342 0.644453 1.01553
1.07825 0.607338 -1.53965
1.49466 -2.30883 0.636735
3.18465 2.70962 -1.81401
1.33049 1.63489 -0.37627
-2.80177 -3.38944 3.96265
-1.02113 1.25846 1.00885
-0.914009 -0.499761 -1.1426
-1.09792 2.29405 -2.76005
-1.24719 2.53345 -2.93903
-1.07861 1.88293 -2.32853
-0.846816 2.01863 -2.59649
-0.847122 1.82647 -2.38984
-2.13456 -1.76308 0.42558
-1.66517 -1.58608 0.826748
-1.50011 -1.46008 0.667762
-1.29076 -2.19309 2.13386
3.26348 -2.22651 0.91096
-2.75797 1.4505 1.85737
-2.79437 1.36818 2.10831
-1.11422 2.70607 -3.1907
2.31691 -3.15741 1.05304
-3.09131 -2.36975 0.0741778
-3.02578 -2.41852 0.420068
-2.81518 -2.25816 0.420003
-2.94795 -2.21737 -0.0406255
-3.67811 2.66016 -0.421244
-2.92398 -2.43845 0.859207
-2.76649 -2.29384 0.729797
-1.26699 -1.94838 1.78578
-1.26296 -1.81232 1.57585
2.52449 2.94834 -3.27393
-1.79618 -1.08912 -0.720262
-1.66907 -1.16276 -0.443247
-1.51129 -1.04066 -0.605441
-1.25941 -1.47585 0.980596
-1.68516 2.8533 -3.03417
-1.39499 2.77722 -3.11522
-2.94631 -1.57165 3.91082
-2.94383 -1.34295 3.70373
-2.7009 -1.44337 3.6064
-2.96389 -2.9409 3.69109
0.327859 -3.08058 1.98102
1.77549 -2.35799 0.602962
2.10467 -2.42436 0.558893
-3.32873 -2.89177 1.64311
-3.15806 -2.73671 1.47431
2.50068 1.73773 1.53327
2.54864 2.10862 1.62579
-1.68444 3.67522 -3.89865
-3.06759 -0.775193 3.24853
-2.94403 -1.13242 3.50687
-3.13336 -3.16968 3.12326
2.04249 1.3183 1.35537
2.28281 1.26842 1.47369
2.15487 1.67984 1.47369
2.05363 1.50549 1.40314
-2.23987 -0.835077 -2.38831
-2.31025 -0.622618 -2.32055
-3.11015 -2.70559 3.59807
-3.79559 0.804716 -2.85502
-1.51611 -0.263676 -1.43829
-1.63348 0.0639394 -1.31294
3.80333 2.5208 2.00461
2.83394 3.06052 -0.539438
2.76824 2.28384 -1.79458
0.322126 -0.210526 -0.0303101
-0.471842 3.80568 0.481546
1.47627 2.31428 2.31746
-2.56262 -2.17287 0.859659
-2.72392 -2.325 1.01061
2.05942 1.45108 -3.17865
-1.97375 -1.95668 3.51914
3.35596 -2.11612 1.28549
0.679127 1.11545 -1.4384
-3.38734 -1.72952 3.21834
-0.620404 3.94997 0.641006
-1.24029 1.75518 -2.11657
-1.26861 1.51704 -1.83939
-3.37208 -1.58194 -1.66408
-0.838366 1.00011 -0.152531
-1.25956 -3.66606 3.90071
-1.02632 -3.56075 3.59933
-3.16848 -1.48199 3.99222
-3.1839 1.86817 2.35798
-2.01924 1.74318 2.14946
-2.62587 2.11125 2.41381
0.842685 2.56902 -2.4513
-3.79118 3.9176 -2.83243
3.0509 1.25508 1.98323
-2.42044 -1.56291 3.49832
-0.773189 2.5304 0.481696
-3.46468 -1.635 -3.65858
-2.10735 -2.64747 3.22303
-1.25556 -1.63645 1.28918
-3.91945 3.23361 2.83129
2.10517 3.78782 0.0109658
2.35319 3.12974 -0.197542
-2.94978 3.05373 -2.43703
-0.880735 0.71084 -0.842691
2.59102 0.296556 2.48667
-1.93451 0.557651 1.74881
-2.49251 -2.45603 2.07088
-2.32046 -2.31334 1.90148
-2.25796 -0.4157 2.36653
-2.16309 -0.308093 2.1249
-2.0958 -1.17976 -0.849034
3.27479 3.37485 -3.91551
-3.93982 1.15346 -2.79402
3.33998 -3.78338 1.18095
3.79055 -3.93563 1.11056
-1.08724 3.47196 1.38734
-2.53414 -1.78992 2.77719
-2.19255 1.96313 2.12501
-2.9501 -2.5398 1.26398
-2.98191 -3.19579 3.40056
-1.89473 -2.70546 3.13171
3.27807 3.89942 -0.136383
-3.76188 3.29927 2.60137
-2.52672 3.91923 -3.66405
-1.61315 -0.543035 1.89474
-3.23105 2.20224 -1.35522
-3.59268 -1.88386 -1.45784
2.51679 1.30724 1.57583
2.83801 1.25764 1.82045
-1.16189 1.01485 1.76721
-1.00408 1.44636 0.238924
-1.95051 3.54811 -3.61137
-2.23131 3.6259 -3.52929
-3.65901 0.920323 -2.66029
-1.27163 1.33752 -1.63275
-1.99071 -1.15567 -2.21202
-1.79957 -1.0747 -1.89473
-1.79102 -1.09416 -2.00006
-1.05663 -1.057 -1.07703
-2.19253 0.871489 1.96965
-2.12959 1.20592 2.13381
-2.72183 2.33289 2.33231
-3.59414 -3.14657 1.95128
-3.96495 1.95286 -2.35126
1.71737 1.27751 1.27487
1.7622 1.52766 1.43561
-2.54027 1.97986 -1.30339
-2.75826 1.86629 -1.01777
-2.94943 3.23238 -2.64728
-3.26066 3.9377 -3.22608
2.37167 2.79848 -3.12344
-3.754 3.30484 0.86077
-3.78777 -1.66656 -3.3669
-0.540731 -1.42086 0.707802
-2.53453 -1.57818 2.66589
-2.11389 -3.10699 3.60083
-2.14941 -3.15789 3.65898
-0.603614 3.63444 2.69924
1.68274 -3.6848 1.79128
-3.16115 -2.31322 -0.204491
-2.53469 -1.10637 -1.69567
-2.25408 -1.84379 3.62581
-2.96823 -2.63257 1.64422
-3.11604 -2.76371 1.75566
2.27728 0.271819 1.95569
-2.5023 -2.02475 0.424589
-2.29121 -1.91182 0.567559
-2.11525 -2.24101 2.00671
-2.11437 -2.33308 2.21881
-2.11334 -2.11999 1.69063
-2.1111 -2.4885 2.53785
-1.18204 1.18779 1.73742
1.4105 -3.61283 1.86047
-3.62663 -3.12111 1.6845
-2.52701 3.51085 -3.23016
-2.52708 3.70807 -3.44083
1.89474 1.47369 -2.94113
-0.980837 -1.04141 -1.47368
-0.516349 -0.906294 -1.13677
-1.82526 1.51644 -1.38861
-1.69599 1.34174 -1.26219
-1.90596 1.46229 0.259352
2.52888 3.78099 0.0167398
3.77656 3.39408 2.00018
-2.34605 -1.87361 0.286611
-1.3609 1.94904 -2.25593
-0.844831 -1.48443 1.0026
-1.04341 3.62408 1.85688
3.18037 -3.56773 1.06228
1.90377 1.46387 -1.44231
-1.95955 -0.303627 -1.83872
-2.24076 -0.103906 -1.96059
-0.657481 1.83554 1.50388
-1.48986 -0.655867 1.83242
-1.50535 -0.596069 1.83769
3.75119 2.99864 1.93824
-1.79671 -0.0850907 -1.55742
-2.94909 -1.33474 -2.52815
-2.53031 -1.16968 -2.10952
-1.54087 1.42867 -1.53095
-2.77288 0.155222 -2.28273
-2.85816 0.421428 -2.2015
-2.17161 -1.22745 -2.41418
-1.07566 3.47206 1.57703
-0.251367 0.546816 -0.452309
-0.37933 0.631579 -0.401789
-0.874745 0.736822 -0.430918
-0.744808 -3.6605 3.489
3.57866 0.541043 3.57923
1.44774 1.05264 -2.31578
2 0 1
2 2 3
2 4 5
2 6 7
2 8 6
2 9 10
2 11 12
2 13 14
1 15
1 16
1 17
4 18 19 20 21
4 22 23 24 25
2 20 26
4 27 28 29 30
4 31 32 11 33
4 34 31 33 35
4 36 37 38 39
4 40 41 42 43
2 44 45
2 46 47
4 48 49 50 51
4 52 53 54 55
4 56 57 58 59
4 60 61 62 63
4 64 60 63 65
4 66 67 68 69
4 70 64 65 71
4 72 66 69 73
4 74 70 71 19
4 75 72 73 76
4 77 78 79 80
4 81 77 80 82
4 83 81 82 84
4 85 83 84 86
4 87 88 89 37
4 90 91 92 93
4 94 95 96 41
4 97 98 99 100
4 101 97 100 102
4 103 104 105 106
4 107 108 52 109
4 110 111 112 113
4 114 115 116 117
4 118 119 56 120
4 121 122 123 124
4 125 126 90 127
4 128 121 124 129
4 130 131 64 70
4 132 128 129 133
4 134 135 136 137
4 138 139 140 141
4 142 143 144 78
4 145 146 147 148
4 149 145 148 150
4 151 152 153 154
4 155 156 157 158
4 159 160 161 162
4 163 74 19 18
4 164 165 83 85
4 166 155 158 167
4 168 159 162 169
4 92 170 171 172
4 173 164 85 88
4 174 175 176 177
4 178 179 180 181
4 182 183 184 185
4 186 187 188 189
4 190 186 189 191
4 192 193 110 194
4 195 196 114 197
4 198 199 4 200
4 201 202 203 204
4 205 206 207 208
4 209 195 197 135
4 210 205 208 211
4 212 210 211 213
4 214 215 216 217
4 218 212 213 219
4 220 221 139 138
4 222 223 224 225
4 226 227 228 229
4 230 231 232 233
4 234 235 236 237
4 238 239 151 240
4 241 242 243 244
4 245 238 240 246
4 247 248 249 250
4 251 241 244 175
4 252 253 254 179
4 255 256 257 258
4 259 260 173 261
4 262 263 264 265
4 266 267 268 269
4 270 271 272 273
4 274 275 276 277
4 278 279 280 281
4 282 283 284 285
4 286 287 193 192
4 288 289 290 291
4 292 293 294 295
4 296 181 297 298
4 299 300 301 302
4 303 304 305 306
4 307 308 309 310
4 311 303 306 312
4 313 311 312 314
4 315 316 212 218
4 317 318 223 222
4 319 315 218 320
4 67 321 322 68
4 323 324 325 326
4 327 328 329 330
4 331 332 333 334
4 335 336 337 275
4 338 331 334 339
4 340 341 278 342
2 343 344
4 345 346 283 282
4 347 348 349 350
4 351 352 286 353
4 354 355 356 357
4 358 359 360 361
4 362 363 364 365
4 366 358 361 367
4 368 369 370 371
4 372 373 374 375
4 376 377 378 379
4 380 381 328 327
4 382 383 384 385
4 386 387 388 389
4 390 391 392 393
4 394 395 396 397
4 398 399 400 363
4 401 402 366 403
4 404 405 406 407
4 408 401 403 409
4 410 411 412 413
4 414 415 416 417
4 418 414 417 419
4 420 421 422 423
4 424 425 426 427
4 428 429 377 376
4 430 431 380 432
2 433 434
4 435 433 434 436
4 437 438 439 440
4 441 442 443 444
4 445 441 444 446
4 447 448 391 390
4 449 450 451 452
4 453 454 455 456
4 457 458 404 459
4 460 461 408 462
4 463 464 410 465
2 466 44
4 467 468 469 470
4 471 460 462 472
4 473 474 475 476
4 477 478 424 479
4 480 481 482 346
4 483 484 430 485
4 486 487 438 437
4 488 489 490 491
4 492 493 494 495
4 496 497 498 499
4 500 501 458 457
4 426 502 503 504
4 505 506 507 508
4 509 510 511 474
4 512 513 468 467
4 514 515 516 517
4 518 519 484 483
4 520 521 522 523
4 524 525 526 527
4 528 529 530 531
4 532 533 534 535
4 536 537 538 539
4 540 541 489 488
4 542 540 488 543
4 544 545 546 547
4 548 549 550 551
4 552 553 554 555
4 556 557 558 559
4 560 561 562 563
4 564 565 518 566
4 567 568 520 569
4 570 571 529 528
4 572 573 574 575
4 576 577 578 579
4 580 581 582 583
4 584 585 537 536
4 586 587 588 589
4 590 584 536 591
4 592 593 594 595
4 596 597 598 599
4 600 601 602 603
4 604 605 606 607
4 608 609 548 610
4 611 612 613 614
4 615 616 561 560
4 617 618 565 564
4 619 620 568 567
2 621 622
4 623 624 625 626
4 627 621 622 628
4 629 630 631 632
4 633 634 635 321
4 636 637 638 639
4 640 623 626 641
4 642 643 644 645
4 646 647 648 649
4 650 646 649 651
4 652 653 584 590
4 654 397 303 311
4 655 652 590 656
4 657 658 659 660
4 661 662 592 663
4 466 664 665 44
4 666 667 186 190
4 668 669 605 604
4 670 671 672 673
4 674 319 320 675
4 676 677 678 679
4 680 681 617 682
4 683 684 630 629
4 685 686 687 647
4 688 689 690 691
4 692 693 694 695
4 696 697 698 699
4 695 694 570 700
4 701 702 703 704
4 705 706 707 708
4 709 710 655 711
4 712 713 714 715
4 716 712 715 717
4 718 719 720 721
4 722 723 724 725
4 726 727 728 729
4 730 731 732 733
4 734 735 736 737
4 738 734 737 739
4 740 741 621 627
4 742 743 744 745
2 746 747
4 748 749 741 740
4 750 751 684 683
4 752 753 754 755
4 756 757 758 689
4 423 422 759 324
4 760 750 683 761
4 762 763 764 697
4 765 766 685 767
4 768 769 770 771
4 772 773 774 775
4 511 776 777 778
4 779 780 781 782
4 783 784 785 786
4 787 788 789 790
4 791 792 793 794
4 795 796 797 798
4 799 800 801 802
4 803 804 727 726
4 805 806 807 808
4 809 810 811 753
4 581 812 813 582
4 462 408 409 814
4 815 816 817 818
4 819 820 821 822
4 823 824 825 826
4 827 828 750 760
4 829 827 760 830
4 831 832 833 834
4 225 224 835 836
4 837 829 830 838
4 839 840 841 773
4 842 837 838 843
4 844 845 846 784
4 847 848 779 849
4 850 851 852 853
4 854 855 796 795
2 856 810
4 857 858 859 860
4 861 862 823 863
4 864 865 866 867
4 868 869 870 871
4 872 873 874 875
4 876 877 878 879
4 880 881 882 845
4 883 884 885 886
4 887 888 842 889
4 890 891 892 893
4 894 895 896 897
4 898 887 889 899
4 900 901 902 903
4 904 905 906 46
4 907 894 897 908
4 58 909 910 911
4 801 912 913 914
4 915 907 908 916
4 917 918 854 919
2 920 921
4 922 923 924 925
4 926 927 928 929
4 930 931 932 873
4 644 933 934 935
4 936 937 938 939
4 940 941 942 891
4 943 944 945 946
4 947 948 949 950
4 951 952 918 917
4 953 954 955 956
4 957 951 917 958
2 959 960
2 961 962
4 963 964 965 966
4 967 968 969 931
4 970 971 972 973
4 415 974 975 416
4 976 977 978 979
4 980 981 982 983
4 984 985 954 953
4 986 987 988 989
4 990 705 708 991
2 992 971
2 993 994
2 985 984
2 995 996
2 987 986
2 997 998
2 999 1000
2 986 1001
4 659 1002 540 542
2 1003 1004
2 1001 1005
1 434
4 1006 1007 1008 1009
1 433
2 436 434
2 631 1010
2 482 1011
2 750 751
4 1012 943 946 1013
2 346 482
2 827 828
2 285 284
2 829 827
4 1014 960 856 1015
2 837 829
4 1016 1017 1018 1019
2 887 888
4 465 410 413 1020
2 35 33
2 1021 34
2 102 100
2 998 102
1 998
4 440 439 436 481
4 1022 440 481 480
4 770 1023 683 761
4 143 134 137 144
4 1024 1025 346 345
4 644 933 631 632
4 768 769 760 830
4 1026 768 830 838
4 1027 1028 842 889
4 1029 1027 889 899
4 947 948 1030 1031
4 30 29 12 11
4 373 1032 1033 374
4 1034 1035 31 34
4 1036 1037 1038 1039
4 599 598 1040 98
4 189 188 97 101
4 191 189 101 997
2 191 997
2 666 1041
4 93 92 199 198
4 692 693 770 771
4 127 90 249 250
4 1042 692 771 1043
4 781 1042 1043 1044
4 1045 22 28 27
4 265 264 597 596
4 280 265 596 187
4 281 280 187 186
2 1046 1047
4 1048 281 186 190
2 1049 1050
4 1042 692 695 1051
2 1048 190
2 340 1052
4 1053 961 1054 171
4 1055 1056 91 90
4 1057 1058 570 700
4 871 870 446 1059
4 707 1060 695 1051
4 705 706 1042 781
4 1061 1062 1063 1064
4 1065 1066 23 22
4 246 240 155 166
4 334 333 263 262
4 339 334 262 279
4 1067 1068 866 867
2 257 1069
4 344 1070 278 342
4 745 744 615 1071
4 343 1072 341 340
2 1073 1048
2 343 340
4 59 58 1074 1075
4 1076 118 1077 1078
4 584 585 1057 1079
4 1080 1081 1082 1083
4 1084 234 239 238
4 1085 1084 238 245
4 384 1086 1087 332
4 1088 1089 338 1072
4 1090 1091 1092 15
4 1093 1094 1070 344
4 1095 1096 1097 910
2 1098 1099
4 55 54 909 58
4 1100 973 1101 881
4 1035 27 32 31
4 109 52 57 56
4 1102 1103 1104 1105
4 1106 1107 1108 1109
4 1070 339 279 278
4 1110 1111 1112 1113
4 491 490 1114 1115
4 540 541 536 591
4 659 1002 590 656
4 1116 1117 1118 1119
4 657 658 655 711
4 1120 1121 1122 1123
4 1124 1125 1126 1127
4 1128 1129 235 234
4 1130 1131 1132 383
4 1133 1134 272 273
4 1135 1136 105 106
4 1137 1138 1091 1090
2 1069 1096
4 1139 255 53 52
2 1140 920
4 940 941 1141 1142
4 1143 716 717 1144
4 890 891 1117 1116
4 1145 1146 382 1147
4 229 228 1148 1149
4 1150 1151 1152 1153
4 413 412 1032 373
4 429 465 1154 1155
4 299 300 1156 1157
4 1158 376 1130 1146
4 1159 1160 1161 1162
4 1163 1164 1136 1135
4 1165 1166 1138 1137
4 1167 1168 0 1169
4 1170 1171 1172 974
2 50 257
4 48 49 256 255
4 1173 1174 1175 1176
4 1177 994 1178 1179
4 1133 1134 1161 1162
4 1180 1181 1103 1102
4 1182 1183 1184 941
4 1185 1186 1187 1188
4 1189 1190 942 891
4 1001 986 989 1191
4 1192 1193 1194 1195
4 1196 1197 1198 1199
4 1072 338 339 1070
4 602 1200 594 595
4 937 1201 1202 938
4 1203 1204 1205 1206
4 1207 1208 1209 1210
4 778 777 411 410
4 1211 1212 1164 1163
4 1213 722 725 1214
4 1215 1216 1166 1165
2 558 1217
4 1218 1219 1220 1174
4 727 1221 1222 728
4 1223 1224 1225 1226
4 215 295 1227 216
4 1228 1229 1183 1182
4 279 262 265 280
4 1230 1231 1160 1159
4 1232 347 1186 1185
4 1233 1234 1193 1192
4 1235 307 310 1236
4 1237 886 1238 1239
4 1240 1241 1242 1243
4 606 1244 602 603
4 1245 1246 1208 1207
4 1247 1248 1017 1016
4 512 513 510 509
4 1249 1250 1212 1211
4 16 1251 1216 1215
4 112 1252 1253 1254
4 110 111 1218 1255
4 702 755 1256 703
4 970 971 1257 1258
4 286 287 1259 349
4 517 516 420 1260
4 844 845 885 886
4 499 498 1234 1233
4 713 786 1261 1246
4 407 406 1262 1263
4 291 290 248 247
4 717 715 669 668
4 1264 459 469 470
4 1265 1266 1267 1268
4 1269 1270 1271 1272
4 911 910 961 1053
4 1273 1274 1275 1276
4 664 1277 185 1278
4 652 653 707 708
4 44 665 1249 1279
2 45 16
4 2 3 0 1169
4 1280 1281 112 113
4 930 931 972 973
4 1282 1283 286 353
4 1284 1285 1286 14
4 1287 1288 234 1084
4 1289 875 882 845
4 390 391 1290 498
4 1291 1292 846 784
4 1293 447 497 496
4 1294 1295 785 786
4 494 1293 496 1296
4 1297 1294 786 713
2 1063 1064
4 836 835 1298 1299
4 770 1023 643 642
4 492 493 1300 1301
4 720 1302 714 715
4 980 983 1303 1061
2 1137 1090
4 296 298 1304 1305
2 1306 1307
4 317 222 1308 1309
4 242 230 233 243
4 1310 1311 507 508
4 1133 1162 104 273
4 1146 1312 385 382
4 489 490 1114 539
4 658 659 656 655
4 752 753 1313 763
4 598 1314 1315 1040
4 1316 1317 1318 1319
4 1320 1321 709 1322
4 1116 1323 1324 1119
4 1325 1326 1327 1328
2 1165 1137
4 1329 1330 1331 1332
4 853 1333 794 791
4 446 444 1022 1334
4 438 439 436 435
4 798 797 1335 1336
4 1337 1329 1332 1125
4 1338 1339 231 230
4 54 1340 1096 1095
4 1159 1164 1136 1162
4 1125 1332 1341 1126
2 523 520
4 1189 1238 892 891
4 379 300 1156 1342
2 985 1046
4 1343 1344 614 611
4 214 217 139 221
4 1075 1074 170 92
4 1187 1102 1345 1346
4 857 860 1347 1348
4 1349 1194 1350 491
4 36 37 96 41
2 50 1217
2 190 191
4 593 594 542 659
4 1351 1352 1353 723
2 1354 1355
4 1282 1283 202 201
4 602 1200 1356 1357
4 940 891 1117 1142
4 1358 1359 1360 1361
2 1179 1362
4 1327 1363 1329 1337
4 1364 1365 378 377
2 171 1054
4 1366 1367 906 46
4 1338 1339 145 149
4 1226 1173 1176 1368
4 1369 860 1347 840
4 1181 1370 1104 1103
4 662 592 660 657
4 1242 1192 1195 1371
4 214 215 1199 221
4 1280 1281 1372 1373
4 1374 1375 824 925
4 1376 1377 289 288
4 1378 600 663 661
4 1379 1380 1381 1382
4 1203 1208 1209 1206
4 956 1383 919 917
4 1384 1385 734 738
4 557 558 1217 50
4 847 848 1027 1029
4 1386 1387 1388 1389
4 568 520 566 564
2 344 1073
4 1390 1391 1392 1393
4 1060 1057 700 695
4 1394 1395 1396 1363
4 573 574 1397 639
4 257 1069 1096 1340
4 1398 142 146 145
4 503 674 675 1399
4 1326 1394 1363 1327
4 251 175 254 253
4 1219 1253 48 1220
4 506 1400 1401 507
4 349 1259 1402 1181
4 926 929 932 931
4 1403 1404 1405 1406
4 1275 1407 1408 1409
4 1248 1410 1018 1017
4 143 134 216 217
4 467 470 475 474
4 354 355 396 397
4 366 358 363 362
2 81 83
4 853 852 792 791
4 1411 1412 776 1413
4 512 467 474 509
2 1096 1097
4 174 177 180 179
4 1175 1414 255 1139
4 1415 1338 149 160
4 1245 669 1378 1207
4 1416 1246 1208 1203
4 883 886 1238 1189
4 856 810 1082 1081
2 1 558
4 340 342 666 1052
4 1417 948 1030 1418
4 1018 1328 228 227
4 1419 1093 344 343
4 704 703 1420 1421
4 159 160 243 244
4 631 1010 525 524
4 67 321 123 124
2 1153 1395
2 842 837
4 1272 1275 1409 1422
4 1400 1401 495 492
4 218 212 312 314
4 1416 1423 1261 1246
4 1129 1149 236 235
4 1070 339 1424 1425
2 436 1011
4 1150 1153 1395 1394
2 1153 1152
4 1317 1426 1427 1318
4 1252 1168 556 1253
4 465 1020 372 1154
4 1375 757 825 824
4 636 637 687 647
4 664 665 1249 1278
4 36 39 42 41
4 111 112 1254 1218
4 1428 1299 1326 1325
2 1123 806
4 1429 1277 185 182
4 1115 1114 1430 1431
4 193 110 1255 1223
4 1432 478 517 514
4 430 431 799 1433
4 287 193 1223 1259
4 1072 1070 278 341
2 79 80
4 1269 1274 1275 1272
2 1434 26
4 406 1309 1248 1262
4 1435 1436 957 1437
4 1312 1342 1156 1157
4 1290 351 347 1438
4 458 404 1439 1412
4 1334 1022 1025 1024
4 1149 1124 1127 236
4 1300 1296 1240 1440
4 501 458 1412 1411
4 1441 1442 1443 1444
4 877 1445 862 861
4 1314 1446 1035 1034
4 500 457 468 513
4 1447 505 547 544
4 1448 460 1310 550
4 278 281 186 667
2 83 85
4 717 1107 604 668
4 1376 1449 291 288
4 457 459 469 468
4 424 425 420 1260
2 136 135
4 1450 956 917 958
2 1451 1452
4 125 127 250 247
2 1453 1454
4 844 784 1455 886
4 296 181 1456 1305
4 605 606 603 600
4 1457 577 649 646
4 970 973 1458 1258
2 971 1257
2 3 0
4 1459 1305 1304 1460
2 16 1215
4 1461 1462 990 1463
4 666 190 1464 1041
4 1465 1280 113 110
2 1466 981
4 1121 1467 851 850
4 1468 1155 1131 1130
4 202 203 194 192
4 1469 681 745 742
4 444 443 440 1022
4 275 276 1470 1273
4 964 965 920 1140
4 1471 1472 1015 1473
4 1474 1475 459 1264
4 336 337 1274 1269
4 222 225 1428 1308
4 1476 1429 1277 664
4 391 392 351 1290
4 226 229 1149 1129
4 1477 1478 406 405
4 63 62 6 8
4 1348 929 932 873
2 964 963
4 1479 1480 1481 1482
4 726 729 1336 798
4 1483 544 1109 1106
4 1422 1409 300 379
4 519 484 1484 562
4 451 1485 1380 1379
4 392 1282 353 351
4 1486 1487 1488 1467
4 1297 1302 714 713
4 1489 633 122 1490
4 835 1491 1151 1298
4 1220 48 255 1414
4 978 966 1492 1201
4 1493 1494 1495 1496
2 1121 1497
4 1289 1292 846 845
4 736 1498 733 1499
4 1272 1271 1365 1422
2 1047 995
2 1396 1330
4 712 715 669 1245
4 231 220 218 320
2 999 996
2 944 943
4 61 62 1373 1280
4 1119 1324 902 901
4 1440 1240 1243 1357
4 1500 1501 1502 1503
4 1504 269 1391 1505
2 1362 1466
4 1360 1506 1270 1265
4 403 366 367 1507
4 196 114 633 1489
4 577 639 648 649
4 1508 1258 994 1177
4 1509 60 1510 203
4 1181 1402 1226 1370
4 1511 1512 1349 1371
4 1513 131 204 201
4 299 302 1134 1157
4 1014 960 1514 1515
4 1511 1512 488 543
4 1516 1517 277 274
4 1039 308 1518 393
4 491 1350 1431 1115
4 1519 1520 317 1478
4 1358 1521 336 1361
4 1309 1308 1410 1248
4 777 1522 412 411
4 380 381 801 802
4 1036 1039 393 390
4 1523 640 690 689
4 383 1132 1086 384
4 678 1524 1525 1526
4 1527 1528 1529 1474
4 900 901 1530 1531
4 49 50 257 256
4 1446 1532 27 1035
4 1057 1058 533 532
4 1533 1036 390 447
4 1534 1535 1536 1533
4 1536 1037 391 448
4 1358 1359 1537 1521
4 228 1337 1125 1148
4 394 397 359 452
4 783 786 1261 1423
4 1538 1447 544 1483
4 1221 1222 721 718
4 1002 540 591 590
4 772 775 1295 1291
4 493 494 1296 1300
4 1539 1540 1541 1542
2 1097 962
4 803 726 798 795
4 1543 803 795 854
4 1312 1157 271 385
4 310 309 130 1544
4 1545 1303 1546 1547
4 1459 1460 1367 1548
4 1348 1347 874 873
4 1473 1549 859 858
4 352 286 349 348
4 796 797 1143 1550
4 1436 1450 958 957
4 1551 1552 1553 355
2 171 5
4 1554 853 1333 1555
4 1556 107 119 118
4 985 954 952 1046
2 1557 1558
4 454 455 1559 1293
4 839 840 875 1289
4 990 705 781 782
4 163 18 1491 835
4 1560 463 465 429
4 1078 1077 126 125
4 1206 1205 1561 1320
4 166 167 1314 1562
4 1016 1019 226 1563
2 920 1564
4 594 1511 543 542
4 398 363 1565 455
4 548 549 1447 1566
4 160 149 150 161
4 904 46 1501 1500
4 264 166 1562 597
4 203 1465 110 194
4 1567 1568 1517 1516
4 1569 1393 1570 1571
2 1395 1396
4 1497 1486 1467 1121
4 1572 790 1573 1442
4 363 364 307 1565
4 270 273 1424 339
4 484 430 1433 1484
4 1442 1573 1574 1443
4 704 1421 587 699
4 1369 1575 841 840
4 848 779 1576 1027
4 956 955 1543 1383
4 1022 1025 346 480
4 1293 447 390 1559
2 1330 1331
4 1577 1578 1403 1197
4 804 727 797 796
2 622 621
4 1108 501 1411 607
4 1579 1568 1517 1386
4 1218 1219 1253 1254
4 1196 1199 210 357
4 983 1118 1580 1303
4 1581 1582 1583 1584
4 315 218 314 313
4 1585 1398 145 149
4 731 732 1214 1213
4 859 1083 1313 763
4 1000 999 957 1437
4 1222 1319 720 721
4 1579 905 1387 1386
4 1582 1586 1587 1583
4 1363 1396 1330 1329
4 425 426 423 420
4 561 562 555 552
4 572 575 578 577
2 1178 1179
4 376 379 1342 1130
4 1588 1589 774 773
4 1571 1570 275 335
4 1425 1590 865 281
4 556 557 50 51
2 80 82
4 1591 1592 1593 1525
4 691 572 577 1457
4 98 1040 1021 99
4 503 674 371 759
4 120 56 1056 1055
4 1573 1574 1426 1594
4 422 368 409 814
4 1548 1595 1596 905
4 399 400 1039 1036
4 1597 1598 1599 1099
2 569 567
4 1564 1600 924 923
4 66 67 124 129
4 997 101 102 998
4 1102 1105 1110 1345
2 1041 1464
2 994 1178
4 1228 1229 1601 884
4 1602 1320 1322 1603
4 1563 226 1129 1033
4 203 1465 1280 1510
4 359 1379 1382 360
4 938 1202 1445 877
4 1067 1068 1092 15
4 895 1604 1605 896
4 890 893 1323 1116
4 292 293 1403 1197
4 1606 1607 1449 1376
4 95 169 176 177
2 1608 47
4 428 376 1130 1468
2 1257 993
4 618 565 560 615
4 496 499 1233 1241
4 623 626 1609 1610
4 1544 130 70 74
4 1201 1202 1445 1611
4 633 321 123 122
4 1612 1613 1614 1615
4 1616 1343 1344 1617
4 669 605 600 1378
4 1374 1600 1618 1375
4 402 366 362 1172
4 640 641 573 690
2 1619 522
4 1620 1621 551 548
2 285 1622
4 613 1620 548 610
4 1273 1470 183 1276
4 154 153 1623 157
4 333 245 1624 263
4 681 617 1071 745
2 1215 1165
4 1234 1232 1185 1193
2 15 1049
4 354 357 303 397
4 185 1250 1212 1230
4 606 1244 1440 1625
4 1508 1229 1183 1177
4 1193 1185 1188 1194
4 40 43 1286 1285
4 267 326 1541 1542
4 18 21 1626 1491
4 1534 399 1036 1533
4 1368 1176 107 1627
4 1586 1587 1628 1629
4 706 707 1051 1042
4 571 529 935 644
2 813 582
4 1630 1147 1089 1088
4 1268 1271 1365 1364
4 1047 1046 952 951
4 783 784 1455 1423
4 1631 686 754 753
4 165 1585 81 83
2 751 684
4 1431 1430 1613 1612
4 431 380 802 799
4 1263 1262 1248 1247
4 779 780 1632 1576
4 702 703 698 697
2 987 984
4 607 606 1625 1411
4 88 85 162 169
4 904 905 1387 1500
4 470 1267 1633 475
4 818 1634 758 757
2 88 173
2 20 1635
4 1296 496 1241 1240
4 1230 1212 1164 1159
4 1636 1637 1537 1521
4 1372 2 1169 1167
4 158 157 1532 1446
4 1638 1555 731 730
4 1639 1519 1478 1477
4 1621 1448 550 551
4 511 778 410 464
4 554 1432 478 477
4 820 821 1589 1588
4 209 195 294 295
4 220 221 212 218
2 813 812
4 54 1095 910 909
4 959 960 1514 1640
4 449 452 399 1534
4 1640 1514 1641 1557
2 117 114
4 388 259 330 327
4 1168 0 559 556
2 1642 1597
4 252 179 268 267
4 1515 1514 1641 927
4 1643 1489 1490 1404
1 558
4 304 1644 1381 1382
4 1026 768 771 1043
4 473 474 463 1560
4 1638 1498 733 730
4 623 624 1598 1610
4 1404 1490 1645 1405
4 1646 1231 1160 302
2 89 88
2 1647 43
4 1648 1377 289 1024
4 1602 1323 1561 1320
4 752 755 764 763
4 935 934 487 486
4 473 476 429 1560
4 1339 145 232 231
2 898 887
2 38 37
4 1398 142 78 77
4 1649 637 687 686
4 1650 1544 74 163
4 409 403 975 416
4 746 747 680 1651
2 856 1081
4 230 231 320 675
4 1472 1652 809 1015
4 822 821 1589 1653
4 1146 1130 1342 1312
4 1175 1139 52 108
4 921 816 1618 1600
2 964 1140
4 1548 1367 906 905
2 1654 116
2 1331 1655
4 1523 1634 623 640
2 979 976
4 153 1656 1066 1065
4 107 109 56 119
4 131 1509 60 64
4 1306 1307 816 921
2 943 1012
4 1657 177 180 181
4 1142 1141 982 983
4 1416 1423 1204 1203
4 1527 1658 1475 1474
4 87 37 96 95
4 1642 624 1598 1597
4 869 1659 441 445
4 1494 1572 1442 1441
4 1660 395 451 450
4 1480 1661 1662 1481
4 880 845 885 884
4 651 649 1663 1664
4 1665 1524 1525 1591
4 748 740 1634 818
4 950 1029 899 898
2 741 749
4 1504 269 1456 1305
4 1127 1126 1656 153
4 864 867 1666 191
4 1512 1349 491 488
1 1647
2 1667 1619
4 1417 1668 1669 1418
4 1670 1434 26 71
4 1236 1650 224 223
4 1523 1634 758 689
4 1236 310 1544 1650
4 1545 1303 1580 901
4 115 116 635 634
4 1244 1440 1357 602
4 209 135 1227 295
4 138 139 213 219
4 826 1671 685 766
4 1328 1327 1337 228
4 304 1644 1672 305
4 912 913 504 426
4 351 352 348 347
4 897 896 1673 1586
2 1013 1012
4 701 704 699 696
4 442 443 440 437
4 1674 1374 925 922
4 1186 1180 1102 1187
4 955 1543 854 918
2 621 741
4 103 106 1068 1590
4 1265 1270 1271 1268
4 1264 1266 1267 470
2 808 805
4 1675 766 752 1549
4 266 269 1391 1390
4 1439 1263 1522 777
4 1478 317 1309 406
4 350 349 1181 1180
4 893 1205 1561 1323
4 1200 1356 1511 594
2 29 1676
4 1531 847 1029 950
4 685 647 1256 755
2 144 78
4 792 793 723 1351
4 1100 881 1601 1229
4 94 95 177 1657
4 117 1677 322 321
4 872 875 882 881
4 577 639 1397 578
4 1586 1673 1479 1629
4 1401 453 494 495
4 220 138 219 218
4 1335 1483 1106 1144
4 925 824 1652 1472
2 1678 17
4 1111 1627 107 1556
4 1283 202 192 286
4 381 328 914 801
4 1421 1679 588 587
4 1680 159 244 241
4 967 931 972 971
4 1123 1681 1555 1554
4 1332 1331 1655 1341
4 723 1353 1494 1493
4 478 424 1260 517
4 292 295 1198 1197
4 1307 749 817 816
4 168 169 176 175
4 1149 1148 1125 1124
4 1603 1324 902 903
4 404 407 1263 1439
4 565 518 563 560
4 747 619 682 680
4 900 903 847 1531
2 1514 1081
4 857 858 929 1348
4 1415 160 243 242
4 521 522 483 518
4 1549 752 763 859
4 871 1682 1683 1059
4 450 451 1684 1535
4 1019 1018 227 226
2 1385 1384
4 1239 1238 892 893
4 83 81 150 161
4 362 365 1235 1685
4 1686 1460 1687 17
4 537 538 535 532
4 1688 386 432 430
4 1689 1637 1537 1359
4 546 492 1301 501
4 387 388 327 380
4 260 173 168 329
4 1690 676 1691 1692
4 1693 670 673 609
4 1522 1016 1563 412
4 164 85 162 159
4 1694 1695 1380 1485
4 394 395 451 452
4 1119 1118 1580 901
4 814 409 416 417
4 1258 1257 993 994
4 1172 398 455 456
4 206 1645 1696 207
4 1516 1570 275 274
4 1354 1697 939 936
4 389 388 259 1698
4 1699 1700 1615 1612
4 1253 556 51 48
4 601 602 595 592
4 504 503 1399 1701
4 913 1702 242 241
4 0 1 558 559
4 800 801 427 424
4 1086 1287 1084 1085
4 40 41 1703 1285
4 862 823 1675 1471
4 225 836 1299 1428
2 1704 14
4 1487 1488 916 915
4 1425 1424 1705 1590
4 823 826 766 1675
4 1058 533 528 570
4 723 724 1496 1493
4 78 144 1706 79
4 746 1707 1469 1651
4 1297 1294 1708 1302
4 1709 1457 646 767
4 1632 1026 1043 1044
4 428 429 1155 1468
1 1307
4 1089 385 271 270
4 925 924 1710 1472
4 1027 1028 1632 1576
4 1008 552 1617 1616
4 1711 1710 856 960
4 455 1036 390 1559
4 231 220 138 232
4 62 6 1712 1373
4 967 968 992 971
4 576 579 1664 651
4 157 1623 22 1045
4 1713 1141 982 981
4 685 686 754 755
4 654 311 361 358
4 531 530 442 441
2 1642 624
4 916 1714 1584 1581
4 933 934 524 631
4 1144 717 1107 1106
4 733 732 1214 1715
2 1558 968
4 237 236 152 151
4 1551 355 396 395
4 1631 1454 1716 686
4 420 421 462 472
4 1535 1684 1037 1536
4 386 387 380 432
4 502 503 759 422
4 1604 1605 1717 1718
4 620 568 564 617
4 290 248 1622 285
4 1114 1719 869 868
4 577 578 1663 649
4 504 1701 325 324
4 1720 1628 787 1721
4 806 1123 1681 807
4 920 921 1600 1564
2 1626 1635
4 1410 1325 1328 1018
4 1584 1583 1720 1352
4 19 71 26 20
4 178 181 1456 269
4 1223 1224 1218 1255
4 146 147 141 138
4 1661 1662 1722 1723
4 1646 1408 301 302
4 1709 1671 685 767
4 1419 1088 1094 1093
4 240 151 156 155
4 1239 1204 1205 893
4 1104 1368 1627 1111
4 421 422 814 462
4 1496 1495 1444 1592
4 1155 1154 372 1131
2 1418 1669
4 1471 1675 1549 1473
4 1482 1481 1724 788
2 1064 1668
2 1052 666
2 259 1698
4 863 823 1675 1725
4 500 501 1411 513
4 1723 1722 834 831
4 1494 1495 1444 1441
4 1453 1454 811 810
4 1684 1726 1038 1037
4 815 818 757 1375
4 462 814 417 414
4 1614 1113 1607 1606
4 1474 1529 1266 1264
4 788 789 822 819
4 1727 941 1141 1713
4 1707 1384 738 1469
4 765 767 702 833
2 13 1678
4 1702 242 1399 503
4 200 4 1452 1451
2 17 1608
4 1690 1343 611 1692
4 1142 1117 1118 983
4 1650 163 835 224
4 945 1728 1604 895
4 676 679 612 1691
4 118 120 1055 1077
4 94 41 1703 1657
4 719 720 715 712
4 293 1643 1489 294
4 527 526 433 435
4 375 374 1288 1287
2 1384 1707
4 1729 1730 1687 1460
4 767 646 703 702
4 142 143 217 146
4 1459 1305 1595 1548
4 1263 1247 1016 1522
4 960 856 1081 1514
4 253 1701 325 326
4 1145 1731 1089 1147
4 729 1732 1733 1336
4 1693 609 1732 729
4 1682 1606 1376 1683
4 1519 1685 1235 1520
4 302 1160 1161 1134
4 833 702 697 762
4 616 561 552 1008
2 1355 944
4 1177 1183 1184 1179
4 423 324 1734 1735
4 1736 313 367 366
4 756 689 1671 826
4 913 1702 503 504
4 1481 1662 1722 1724
4 1610 1609 638 637
4 1369 860 762 1575
4 323 326 1541 1540
4 609 548 1566 1732
1 1451
2 1121 1120
4 1504 1305 1595 1505
4 718 719 712 716
4 1015 809 1083 1080
4 369 1736 313 370
4 1314 1034 34 1315
4 365 364 307 1235
4 1210 1209 662 661
4 832 833 762 860
4 1098 1099 1716 1454
4 1284 14 1730 1729
4 809 753 1313 1083
4 612 613 610 608
4 1308 1428 1325 1410
4 636 639 648 647
2 968 992
1 1557
4 316 357 303 311
4 1717 879 1661 1480
4 1259 1223 1226 1402
4 190 191 997 1464
2 100 99
4 1162 1136 105 104
4 688 691 1457 1709
2 1003 1000
4 151 154 157 156
4 1066 1737 24 23
4 198 200 1451 1738
4 1279 1249 1251 16
4 56 59 1075 1056
4 452 359 400 399
4 1249 1251 1216 1211
4 1341 1655 1737 1066
4 691 690 573 572
4 1088 1094 1070 1072
4 366 367 365 362
4 987 988 953 984
2 261 259
4 1720 1739 1572 1721
4 1086 1085 245 1087
2 386 1667
4 646 649 1420 703
4 1539 1542 1740 1636
4 92 172 4 199
4 103 104 1705 1590
4 1318 1427 1708 1302
2 959 1640
2 1698 389
4 1224 1218 1174 1225
4 1592 1593 672 671
4 1505 1595 1596 1568
4 1366 1608 47 46
4 1594 1426 1427 1741
4 65 63 8 1742
4 1695 1644 1381 1380
2 1005 1004
4 1003 1435 1437 1000
2 1013 1487
4 1163 1166 1138 1135
4 368 369 403 409
4 1211 1216 1166 1163
4 1515 1080 928 927
4 112 1252 1168 1167
4 1350 1699 1612 1431
4 422 368 371 759
4 954 955 918 952
4 851 916 1714 852
4 1355 1354 1697 1728
4 549 550 505 1447
4 977 963 966 978
4 1182 1190 942 941
4 534 1659 441 531
4 516 420 472 471
2 583 580
4 1171 1172 456 453
4 412 1563 1033 1032
4 709 710 990 1463
4 834 833 762 1575
4 877 878 863 861
4 974 975 1519 1639
4 1322 709 1463 1461
1 1097
4 1291 1295 785 784
4 710 655 991 990
4 1699 1346 1345 1700
4 653 584 1079 707
4 1417 1668 1743 948
1 11
4 585 537 532 1057
4 1445 1374 925 862
4 1533 1536 448 447
4 1430 1613 1682 871
4 316 357 210 212
4 188 599 98 97
4 1613 1614 1606 1682
4 461 408 415 1311
4 1089 270 339 338
4 1547 1546 1743 948
4 880 881 1601 884
2 522 523
4 234 237 151 239
4 597 1562 1314 598
4 1578 1403 1406 1553
2 1737 24
2 89 37
4 1732 1538 1447 1566
4 1299 1150 1394 1326
4 1113 1076 1078 1607
2 84 86
4 1111 1556 118 1112
4 1001 1191 1435 1003
4 273 104 1705 1424
4 1371 1349 1194 1195
4 628 622 625 626
4 153 1065 22 1623
4 236 1127 153 152
4 1336 1335 1483 1733
4 501 1301 1625 1411
4 1409 1408 301 300
4 1126 1341 1066 1656
4 1206 1209 1321 1320
4 106 1091 1092 1068
4 172 171 5 4
4 58 911 1053 1074
4 1132 1744 1287 1086
2 1090 15
4 515 516 471 1621
2 1655 1737
4 1649 1099 1599 637
4 1718 876 879 1717
4 22 25 29 28
4 1344 1745 514 1746
4 740 627 623 1634
2 923 1711
2 1062 1063
4 1545 901 1530 1547
4 538 1719 869 535
4 903 1461 849 847
4 308 1747 1513 309
4 1462 990 782 779
4 980 981 1062 1061
4 1121 1122 853 850
4 533 534 531 528
4 869 870 446 445
4 303 304 1382 360
4 344 1073 1048 342
4 627 628 626 623
4 81 77 148 150
4 1419 1088 1072 343
4 408 401 974 415
4 1748 1421 1679 1749
4 1070 1425 281 278
4 510 1413 776 511
4 72 66 129 133
4 1234 1438 347 1232
4 245 246 166 1624
4 1713 1362 1466 981
4 157 1045 27 1532
4 1607 1078 125 1449
4 1389 1388 664 1476
4 1490 122 1696 1645
2 38 39
2 1704 43
4 1015 856 1081 1080
4 1721 787 790 1572
4 395 1694 1485 451
4 139 132 133 140
4 1056 1075 92 91
4 1059 446 1648 1683
4 476 1364 377 429
4 947 950 898 1031
4 1748 1421 587 586
2 1666 1050
4 1074 1053 171 170
4 249 198 1738 1750
4 393 392 1282 1518
2 961 1054
4 1547 1530 949 948
4 1689 419 1528 1359
4 1064 1546 1743 1668
4 780 781 1044 1632
4 694 570 645 642
4 999 1047 951 957
4 529 530 486 935
4 77 78 147 148
4 530 442 437 486
4 651 1664 1679 1421
4 446 1648 1024 1334
4 1449 125 247 291
2 24 1676
4 426 502 422 423
4 1585 1398 77 81
4 867 1049 1050 1666
4 1237 1423 1204 1239
4 174 175 254 179
2 981 1062
2 1668 1669
4 1028 1632 843 842
4 1172 398 363 362
4 883 884 1190 1189
4 259 260 329 330
4 769 770 761 760
4 1747 1513 201 1282
4 1023 643 629 683
4 910 1097 962 961
4 1657 1703 297 181
4 643 644 632 629
4 1281 1372 1167 112
2 621 624
4 539 538 1719 1114
4 934 487 527 524
4 707 1060 1057 1079
4 149 145 232 233
4 487 438 435 527
4 289 290 285 282
4 248 249 1750 1622
4 550 1310 508 505
4 541 489 539 536
2 29 12
2 1706 79
2 4 1452
1 1669
2 979 1354
4 1745 514 1751 613
2 1031 898
1 964
4 374 1033 1129 1128
2 888 842
4 25 24 1676 29
2 828 750
2 684 630
2 1031 1030
2 99 1021
4 1131 372 1744 1132
2 630 631
2 1010 525
4 263 1624 166 264
4 923 924 1710 1711
2 525 526
4 914 913 241 251
2 526 433
4 183 1407 1408 1646
2 346 283
2 1750 1738
2 34 35
4 1024 289 282 345
2 1738 1451
1 746
4 693 694 642 770
4 1752 1499 1753 1007
4 735 1638 1498 736
1 619
4 1319 1318 1302 720
2 1707 746
4 342 278 281 1048
2 520 569
4 1741 1427 1708 1294
2 808 1385
2 806 805
2 1434 9
2 85 88
4 1352 1720 1739 1353
4 738 739 744 743
2 1486 1497
4 1191 989 1436 1435
4 1235 1236 223 318
2 82 84
4 1390 1542 1740 1393
2 1487 1486
2 77 81
2 86 85
2 137 144
2 580 1706
4 580 581 69 73
2 136 137
4 1553 1406 1644 1695
2 582 583
4 1226 1225 1174 1173
2 114 197
2 1677 812
4 1590 1068 866 865
2 977 976
4 799 800 424 479
2 1464 997
4 744 615 1009 1006
2 116 117
2 1654 1677
4 797 718 716 1143
2 963 977
4 1194 1188 1699 1350
4 52 55 58 57
4 1753 1715 676 1690
1 622
4 520 521 518 566
4 1176 1175 108 107
4 1619 1688 430 485
4 1754 1735 419 1689
4 1727 1179 1362 1713
4 1385 808 735 734
4 1611 1674 1374 1445
2 7 2
4 654 397 359 358
4 455 1036 1039 1565
4 655 652 708 991
4 808 807 1638 735
4 1651 1469 681 680
4 453 454 1293 494
4 87 88 169 95
4 807 1681 1555 1638
4 646 647 1256 703
4 173 164 159 168
4 1123 1122 853 1554
4 164 165 160 159
4 1436 953 956 1450
4 85 83 161 162
4 165 1585 149 160
4 1520 1235 318 317
4 1467 1488 916 851
4 1241 1233 1192 1242
2 1098 1454
4 255 258 54 53
4 1487 1013 907 915
4 1013 946 894 907
4 1276 1275 1407 183
2 39 1647
4 946 945 895 894
4 1706 580 73 76
4 1048 864 191 190
4 134 135 1227 216
4 1728 1697 939 1604
4 581 812 68 69
2 173 261
4 1354 979 937 936
4 1621 1448 460 471
4 1157 1134 272 271
4 1311 1170 1401 507
4 812 1677 322 68
4 1020 413 373 372
4 1422 1365 378 379
4 1207 1378 661 1210
4 114 115 634 633
2 197 135
4 215 295 1198 1199
4 1345 1110 1113 1614
4 117 116 635 321
4 966 965 920 1492
2 283 284
4 748 749 817 818
4 1406 1405 1645 206
2 1306 921
4 671 1316 1319 1222
4 1077 1055 90 126
4 1469 738 743 742
4 617 618 615 1071
4 195 196 1489 294
4 1344 1745 613 614
4 872 873 1101 881
4 1704 43 1286 14
4 739 737 1752 744
4 1268 1267 1633 1364
4 1755 1756 477 554
4 518 519 562 563
4 258 257 1340 54
4 737 736 1499 1752
4 329 1680 241 251
4 1729 298 1304 1460
4 168 159 244 175
4 374 1128 234 1288
4 1555 1333 794 731
4 1415 1338 230 242
4 513 1411 1413 510
4 579 578 1663 1664
2 749 1307
4 160 149 233 243
4 167 158 1446 1314
2 1503 466
4 1360 1529 1266 1265
4 852 1714 1584 792
2 78 77
4 701 702 697 696
4 1311 1170 974 415
4 916 908 1582 1581
4 146 217 139 138
4 1628 1482 788 787
4 145 146 138 232
4 147 75 140 141
4 896 1605 1717 1673
4 1067 15 1049 867
2 1418 1030
4 60 61 1280 1510
4 1604 939 876 1718
4 241 242 1399 1701
4 939 938 877 876
4 293 1643 1404 1403
4 1048 281 865 864
4 1201 1492 1674 1611
4 641 626 1609 573
4 839 773 1292 1289
4 370 313 367 1507
4 1492 920 1564 1674
4 27 30 11 32
4 815 816 1618 1375
4 1147 382 385 1089
4 13 14 1730 1678
4 1007 1008 1616 1757
4 1284 1285 298 1729
4 1670 1758 9 1434
4 744 1752 1007 1006
4 615 616 1008 1009
4 1692 1691 612 611
4 1285 1703 297 298
4 562 1755 554 555
4 1759 1760 404 458
4 1499 733 1715 1753
4 801 912 426 427
4 1412 1439 777 776
4 251 241 1701 253
4 1761 1639 1477 1760
4 677 1665 1524 678
4 1321 657 711 709
4 731 794 722 1213
4 712 713 1246 1245
4 794 793 723 722
4 242 230 675 1399
4 792 1584 1352 1351
4 613 1620 1621 1751
4 1583 1587 1628 1720
4 1444 1443 1317 1316
4 221 1199 210 212
4 309 1513 131 130
4 1228 884 1190 1182
4 139 132 211 213
4 1757 1690 1343 1616
4 1602 1323 1324 1603
4 328 329 251 914
4 1673 1717 1480 1479
4 1089 385 331 338
4 1146 1130 383 382
4 1725 1675 1549 832
4 930 873 1101 973
2 389 386
4 132 128 208 211
4 1577 1578 1553 355
2 191 1666
4 329 1680 159 168
4 979 978 1201 937
4 128 121 207 208
4 1683 1648 1377 1376
4 1209 662 657 1321
4 879 878 863 1661
4 44 45 16 1279
4 121 122 1696 207
4 688 689 1671 1709
4 592 593 659 660
4 498 1290 1438 1234
4 1686 17 1608 1366
4 575 574 1397 578
4 756 757 825 826
4 1754 1735 1734 1540
4 347 350 1180 1186
4 1762 927 969 968
4 573 1609 638 639
4 1674 1564 923 922
2 1564 923
4 1526 1525 673 609
4 1374 1600 924 925
4 1569 1636 1740 1393
4 1610 1598 1599 637
4 1370 1226 1368 1104
2 1597 1099
2 33 11
4 1491 1626 1152 1151
4 1678 1730 1687 17
4 1565 1039 308 307
4 832 1549 859 860
4 1748 1749 589 586
4 1007 1753 1690 1757
4 1135 1138 1091 106
4 552 553 1344 1617
4 178 179 268 269
4 1237 886 1455 1423
4 554 1432 514 1746
4 185 184 1231 1230
4 252 253 326 267
4 1715 1214 677 676
4 788 1724 820 819
4 474 511 464 463
4 1214 725 1665 677
2 1622 1750
4 504 503 759 324
4 725 724 1496 1665
4 908 897 1586 1582
4 674 319 370 371
4 1014 1015 1080 1515
4 369 370 1507 403
4 1353 1739 1572 1494
4 319 315 313 370
4 144 1706 76 75
4 423 422 814 1735
4 315 316 311 313
4 210 205 305 306
4 205 206 1672 305
4 117 116 1654 1677
4 1661 863 1725 1723
4 1567 1393 1392 1568
4 797 1335 1144 1143
4 576 577 649 651
4 944 1355 1728 945
4 862 925 1472 1471
4 1373 1372 2 1712
4 823 824 1652 1675
4 1649 1099 1716 686
4 1700 1345 1614 1615
4 1356 1242 1371 1511
4 820 834 1575 1588
4 535 534 1659 869
4 1686 1460 1367 1366
4 1461 1462 779 849
4 266 267 1542 1390
4 679 678 1526 612
4 514 515 1621 1751
4 1619 1688 386 1667
4 1727 1179 1184 941
4 342 278 667 666
4 1188 1187 1346 1699
4 183 184 1231 1646
4 323 324 1734 1540
4 1665 1496 1592 1591
4 1100 973 1458 1229
4 369 1736 366 403
4 1061 1303 1546 1064
4 21 20 1635 1626
4 562 1755 1756 1484
4 313 311 361 367
4 790 789 822 1573
4 1577 1197 356 355
4 311 303 360 361
4 1629 1479 1482 1628
4 1724 1722 834 820
4 1114 1430 871 868
4 1723 1725 832 831
4 570 571 644 645
4 650 646 703 704
4 449 450 1535 1534
4 372 375 1287 1744
4 765 766 752 833
4 1484 1756 799 1433
4 1531 1530 949 950
4 1675 1652 809 1549
4 1472 1710 856 1015
4 650 651 1421 704
4 1631 1454 811 753
2 10 8
2 567 619
2 1711 960
4 1359 1528 1529 1360
4 600 601 592 663
2 1453 810
4 1505 1391 1392 1568
4 481 436 1011 482
4 1539 1540 1637 1636
4 612 1526 609 608
4 1174 1220 1414 1175
4 1647 39 42 43
4 506 1400 492 546
4 1603 1322 1461 903
4 1754 1540 1637 1689
4 1735 814 417 419
2 1503 1502
4 1525 1593 672 673
4 1588 1575 841 773
4 460 461 1311 1310
4 1592 1444 1316 671
4 651 649 1420 1421
4 1503 1388 664 466
4 401 402 1172 974
2 1123 1120
4 403 366 362 975
4 1443 1574 1426 1317
4 78 144 75 147
4 358 359 400 363
4 451 1379 1726 1684
4 803 804 796 795
4 359 1379 1726 400
4 1632 1026 838 843
4 75 72 133 140
4 1749 1679 588 589
4 418 414 1658 1527
2 1626 1152
4 704 703 698 699
4 1579 1568 1596 905
4 833 752 763 762
4 398 399 1036 455
4 619 620 617 682
4 702 755 764 697
4 1473 1015 1080 858
4 1040 1315 34 1021
4 1549 809 1083 859
4 809 810 1082 1083
4 187 596 599 188
4 545 546 501 1108
4 1196 1197 356 357
2 960 1514
2 46 1501
4 1301 1300 1440 1625
4 90 93 198 249
4 1005 1001 1003 1004
4 1567 1393 1570 1516
4 1569 1636 1521 1571
4 1406 206 1672 1644
4 989 988 953 1436
4 1299 1298 1151 1150
4 447 390 498 497
4 1693 670 728 729
4 670 671 1222 728
4 438 1763 433 435
4 414 415 1761 1658
4 476 475 1633 1364
4 415 974 1639 1761
4 1758 9 1742 65
4 1170 1171 453 1401
4 1756 799 479 477
4 131 1509 203 204
4 975 362 1685 1519
4 553 554 1746 1344
4 1594 1653 775 1741
4 1653 1589 774 775
4 400 1726 1038 1039
4 1670 1758 65 71
4 1278 185 1250 1249
4 212 210 306 312
4 9 10 8 1742
4 1361 1360 1506 336
4 418 419 1528 1527
4 858 1080 928 929
2 1640 1557
2 1501 1502
4 1107 1108 607 604
4 1500 1387 1388 1503
4 332 1087 245 333
4 1386 1517 277 1389
4 505 506 546 547
2 747 619
4 1571 1521 336 335
4 1383 1543 854 919
4 1732 1538 1483 1733
4 1389 277 1429 1476
4 621 622 625 624
4 1552 1553 1695 1694
4 1658 1761 1760 1475
4 1105 1104 1111 1110
4 1741 775 1295 1294
4 1113 1112 118 1076
4 772 773 1292 1291
4 1762 1557 1641 927
4 1036 1037 391 390
4 1764 428 376 1158
4 522 1619 485 483
4 308 1747 1282 1518
4 1357 1356 1242 1243
4 840 1347 874 875
4 6 7 2 1712
4 926 927 969 931
4 1429 1470 183 182
4 1762 1557 1558 968
4 385 384 332 331
4 277 276 1470 1429
4 275 337 1274 1273
4 1573 822 1653 1594
4 999 1047 995 996
4 336 1506 1270 1269
4 1508 1258 1458 1229
4 727 1221 718 797
4 544 545 1108 1109
4 1475 1760 404 459
4 1551 1552 1694 395
4 1760 1477 405 404
